[gd_scene load_steps=1 format=2]

[sub_resource id=1 type="Shader"]

resource_name = "Shader Nodetree"
code = "shader_type spatial;
render_mode blend_mix, depth_draw_always, cull_back, diffuse_burley, specular_schlick_ggx;



void node_bsdf_principled(vec4 color, float subsurface, vec4 subsurface_color,
        float metallic, float specular, float roughness, float clearcoat,
        float clearcoat_roughness, float anisotropy, float transmission,
        float IOR, out vec3 albedo, out float sss_strength_out,
        out float metallic_out, out float specular_out,
        out float roughness_out, out float clearcoat_out,
        out float clearcoat_gloss_out, out float anisotropy_out,
        out float transmission_out, out float ior) {
    metallic = clamp(metallic, 0.0, 1.0);
    transmission = clamp(transmission, 0.0, 1.0);

    subsurface = subsurface * (1.0 - metallic);

    albedo = mix(color.rgb, subsurface_color.rgb, subsurface);
    sss_strength_out = subsurface;
    metallic_out = metallic;
    specular_out = pow((IOR - 1.0)/(IOR + 1.0), 2)/0.08;
    roughness_out = roughness;
    clearcoat_out = clearcoat * (1.0 - transmission);
    clearcoat_gloss_out = 1.0 - clearcoat_roughness;
    anisotropy_out = clamp(anisotropy, 0.0, 1.0);
    transmission_out = (1.0 - transmission) * (1.0 - metallic);
    ior = IOR;
}

void vertex () {
}

void fragment () {
	
	// node: 'Principled BSDF'
	// type: 'ShaderNodeBsdfPrincipled'
	// input sockets handling
	vec4 node0_in0_basecolor = vec4(0.8000000715255737, 0.3322102427482605,
		0.08448204398155212, 1.0);
	float node0_in1_subsurface = float(0.0);
	vec3 node0_in2_subsurfaceradius = vec3(1.0, 0.20000000298023224,
		0.10000000149011612);
	vec4 node0_in3_subsurfacecolor = vec4(0.800000011920929, 0.800000011920929,
		0.800000011920929, 1.0);
	float node0_in4_metallic = float(0.0);
	float node0_in5_specular = float(0.5);
	float node0_in6_speculartint = float(0.0);
	float node0_in7_roughness = float(0.4000000059604645);
	float node0_in8_anisotropic = float(0.0);
	float node0_in9_anisotropicrotation = float(0.0);
	float node0_in10_sheen = float(0.0);
	float node0_in11_sheentint = float(0.5);
	float node0_in12_clearcoat = float(0.0);
	float node0_in13_clearcoatroughness = float(0.029999999329447746);
	float node0_in14_ior = float(1.4500000476837158);
	float node0_in15_transmission = float(0.0);
	float node0_in16_transmissionroughness = float(0.0);
	vec4 node0_in17_emission = vec4(0.0, 0.0, 0.0, 1.0);
	float node0_in18_alpha = float(1.0);
	vec3 node0_in19_normal = NORMAL;
	vec3 node0_in20_clearcoatnormal = vec3(0.0, 0.0, 0.0);
	vec3 node0_in21_tangent = TANGENT;
	// output sockets definitions
	vec3 node0_bsdf_out0_albedo;
	float node0_bsdf_out1_sss_strength;
	float node0_bsdf_out3_specular;
	float node0_bsdf_out2_metallic;
	float node0_bsdf_out4_roughness;
	float node0_bsdf_out5_clearcoat;
	float node0_bsdf_out6_clearcoat_gloss;
	float node0_bsdf_out7_anisotropy;
	float node0_bsdf_out8_transmission;
	float node0_bsdf_out9_ior;
	
	node_bsdf_principled(node0_in0_basecolor, node0_in1_subsurface,
		node0_in3_subsurfacecolor, node0_in4_metallic, node0_in5_specular,
		node0_in7_roughness, node0_in12_clearcoat, node0_in13_clearcoatroughness,
		node0_in8_anisotropic, node0_in15_transmission, node0_in14_ior,
		node0_bsdf_out0_albedo, node0_bsdf_out1_sss_strength, node0_bsdf_out2_metallic,
		node0_bsdf_out3_specular, node0_bsdf_out4_roughness, node0_bsdf_out5_clearcoat,
		node0_bsdf_out6_clearcoat_gloss, node0_bsdf_out7_anisotropy,
		node0_bsdf_out8_transmission, node0_bsdf_out9_ior);
	
	
	ALBEDO = node0_bsdf_out0_albedo;
	SSS_STRENGTH = node0_bsdf_out1_sss_strength;
	SPECULAR = node0_bsdf_out3_specular;
	METALLIC = node0_bsdf_out2_metallic;
	ROUGHNESS = node0_bsdf_out4_roughness;
	CLEARCOAT = node0_bsdf_out5_clearcoat;
	CLEARCOAT_GLOSS = node0_bsdf_out6_clearcoat_gloss;
	NORMAL = node0_in19_normal;
	// uncomment it when you need it
	// TRANSMISSION = vec3(1.0, 1.0, 1.0) * node0_bsdf_out8_transmission;
	// uncomment it when you are modifing TANGENT
	// TANGENT = normalize(cross(cross(node0_in21_tangent, NORMAL), NORMAL));
	// BINORMAL = cross(TANGENT, NORMAL);
	// uncomment it when you have tangent(UV) set
	// ANISOTROPY = node0_bsdf_out7_anisotropy;
}
"

[sub_resource id=2 type="ShaderMaterial"]

resource_name = "Material"
shader = SubResource(1)

[sub_resource id=3 type="Shader"]

resource_name = "Shader Nodetree"
code = "shader_type spatial;
render_mode blend_mix, depth_draw_always, cull_back, diffuse_burley, specular_schlick_ggx;



void node_bsdf_glossy(vec4 color, float roughness, out vec3 albedo,
        out float metallic_out, out float roughness_out) {
    albedo = color.rgb;
    roughness_out = roughness;
    metallic_out = 1.0;
}

void vertex () {
}

void fragment () {
	
	// node: 'Glossy BSDF'
	// type: 'ShaderNodeBsdfGlossy'
	// input sockets handling
	vec4 node0_in0_color = vec4(0.800000011920929, 0.800000011920929,
		0.800000011920929, 1.0);
	float node0_in1_roughness = float(0.0);
	vec3 node0_in2_normal = NORMAL;
	// output sockets definitions
	vec3 node0_bsdf_out0_albedo;
	float node0_bsdf_out1_metallic;
	float node0_bsdf_out2_roughness;
	
	node_bsdf_glossy(node0_in0_color, node0_in1_roughness, node0_bsdf_out0_albedo,
		node0_bsdf_out1_metallic, node0_bsdf_out2_roughness);
	
	
	ALBEDO = node0_bsdf_out0_albedo;
	METALLIC = node0_bsdf_out1_metallic;
	ROUGHNESS = node0_bsdf_out2_roughness;
	NORMAL = node0_in2_normal;
}
"

[sub_resource id=4 type="ShaderMaterial"]

resource_name = "Material001"
shader = SubResource(3)

[sub_resource id=5 type="ArrayMesh"]

resource_name = "Cube"
surfaces/0 = {
	"material":SubResource(2),
	"primitive":4,
	"arrays":[
		Vector3Array(-5.79284, 0.997594, 2.46251, -4.8918, 1.21488, 2.70113, -4.8918, 1.21488, 2.46251, -4.8918, 1.21488, 2.70113, -5.79284, -1.00241, 2.70113, -4.8918, -1.00241, 2.70113, 6.47727, -1.00241, 2.46251, 5.12792, -1.00241, 2.70113, 5.12792, -1.00241, 2.46251, 6.47727, -0.390524, 2.46251, 6.47727, -1.00241, 2.70113, 6.47727, -1.00241, 2.46251, 3.77856, -0.0195336, 2.46251, 3.18775, -0.0195336, 2.70113, 3.18775, -0.0195336, 2.46251, 4.99488, 1.17909, 2.70113, 3.77856, -0.0195336, 2.70113, 4.99488, -0.0195336, 2.70113, 3.77856, 1.38953, 2.46251, 4.99488, 1.17909, 2.70113, 4.99488, 1.17909, 2.46251, 5.12792, 1.13803, 2.46251, 6.47727, -0.390524, 2.70113, 6.47727, -0.390524, 2.46251, 6.47727, -0.390524, 2.70113, 5.12792, -1.00241, 2.70113, 6.47727, -1.00241, 2.70113, 5.12792, -1.00241, 2.46251, 4.99488, -0.0195336, 2.70113, 4.99488, -0.0195336, 2.46251, 2.07753, -1.00241, 2.46251, -1.68593, -1.00241, 2.70113, -1.68593, -1.00241, 2.46251, 3.06184, -1.00241, 2.70113, 2.07753, 3.55518, 2.70113, 2.07753, -1.00241, 2.70113, -3.81212, -1.00241, 2.46251, -4.64435, -1.00241, 2.70113, -4.64435, -1.00241, 2.46251, -3.61779, 1.51303, 2.70113, -3.81212, -1.00241, 2.70113, -3.61779, 0.0069285, 2.70113, -3.81212, 1.47524, 2.46251, -3.61779, 1.51303, 2.70113, -3.61779, 1.51303, 2.46251, -1.68593, 3.55375, 2.46251, 2.07753, 3.55518, 2.70113, 2.07753, 3.55518, 2.46251, -1.68593, -1.00241, 2.70113, -1.68593, -1.00241, 2.46251, -1.85639, 0.0069285, 2.70113, -1.85639, 0.0069285, 2.46251, -3.61779, 0.0069285, 2.46251, -3.81212, -1.00241, 2.70113, -3.81212, -1.00241, 2.46251, -3.61779, 1.51303, 2.46251, -3.48316, 1.66649, 2.70113, -3.48316, 1.66649, 2.46251, -3.48316, 1.66649, 2.70113, -3.48316, 0.0069285, 2.70113, -1.68593, 3.55375, 2.70113, -1.85639, 0.0069285, 2.70113, -1.85639, 3.5206, 2.46251, -1.68593, 3.55375, 2.70113, -1.68593, 3.55375, 2.46251, -1.85639, 0.0069285, 2.46251, -1.99861, 0.0069285, 2.70113, -1.99861, 0.0069285, 2.46251, 2.07753, 3.55518, 2.46251, 2.19405, 3.37618, 2.70113, 2.19405, 3.37618, 2.46251, 2.19405, 3.37618, 2.70113, 3.06184, -1.00241, 2.70113, 3.07046, -0.935084, 2.70113, 3.06184, -1.00241, 2.46251, 2.07753, -1.00241, 2.70113, 3.77856, 1.38953, 2.70113, 3.18775, -0.0195336, 2.70113, 3.18775, -0.0195336, 2.46251, 3.1774, -0.10033, 2.70113, 3.1774, -0.10033, 2.46251, 4.99488, -0.0195336, 2.46251, 3.77856, -0.0195336, 2.70113, 4.99488, 1.17909, 2.46251, 5.12792, 1.13803, 2.70113, 5.12792, 1.13803, 2.46251, 5.12792, 1.13803, 2.70113, 4.99488, -0.0195336, 2.70113, 5.12792, -1.00241, 2.70113, -5.79284, 0.997594, 2.46251, -5.79284, -1.00241, 0.0, -5.79284, -1.00241, 2.46251, 3.07046, -0.935084, 2.46251, 3.06184, -1.00241, 2.70113, 3.06184, -1.00241, 2.46251, 3.63873, 1.60436, 2.46251, 3.77856, 1.38953, 2.70113, 3.77856, 1.38953, 2.46251, 3.77856, 1.38953, 2.70113, 3.1774, -0.10033, 2.70113, 3.18775, -0.0195336, 2.70113, -5.79284, 0.997594, 2.70113, -5.79284, -1.00241, 2.70113, 3.1774, -0.10033, 2.46251, 3.07046, -0.935084, 2.70113, 3.07046, -0.935084, 2.46251, 1.98461, 3.37618, 2.46251, 3.63873, 1.60436, 2.46251, 3.4293, 1.60436, 2.46251, 2.19405, 3.37618, 2.46251, 3.63873, 1.60436, 2.70113, 3.63873, 1.60436, 2.46251, 3.63873, 1.60436, 2.70113, 3.07046, -0.935084, 2.70113, 3.1774, -0.10033, 2.70113, -1.85639, 3.5206, 2.70113, -1.99861, 0.0069285, 2.70113, -1.99861, 3.3585, 2.46251, -1.85639, 3.5206, 2.70113, -1.85639, 3.5206, 2.46251, -3.48316, 0.0069285, 2.46251, -3.61779, 0.0069285, 2.70113, -3.61779, 0.0069285, 2.46251, -3.48316, 0.0069285, 2.70113, -3.48316, 1.66649, 2.46251, -1.99861, 3.3585, 2.70113, -1.99861, 3.3585, 2.46251, -1.99861, 3.3585, 2.70113, -3.48316, 0.0069285, 2.70113, -3.29654, 1.66649, 2.46251, -1.99861, 3.3585, 2.46251, -1.812, 3.3585, 2.46251, -1.99861, 0.0069285, 0.0, -3.48316, 0.0069285, 0.0, -1.812, 3.3585, 0.0, -1.99861, 3.3585, 2.46251, -1.99861, 3.3585, 0.0, -3.48316, 1.66649, 0.0, -3.29654, 1.66649, 2.46251, -3.29654, 1.66649, 0.0, -3.61779, 0.0069285, 0.0, -1.99861, 3.3585, 0.0, -1.85639, 3.5206, 2.46251, -1.85639, 3.5206, 0.0, 3.4293, 1.60436, 0.0, 3.63873, 1.60436, 2.46251, 3.63873, 1.60436, 0.0, 3.1774, -0.10033, 0.0, 3.07046, -0.935084, 2.46251, 3.07046, -0.935084, 0.0, 3.63873, 1.60436, 0.0, 3.77856, 1.38953, 2.46251, 3.77856, 1.38953, 0.0, 2.19405, 3.37618, 0.0, 1.98461, 3.37618, 2.46251, 1.98461, 3.37618, 0.0, 3.07046, -0.935084, 0.0, 3.06184, -1.00241, 2.46251, 3.06184, -1.00241, 0.0, 4.99488, 1.17909, 0.0, 5.12792, 1.13803, 2.46251, 5.12792, 1.13803, 0.0, 4.99488, -0.0195336, 0.0, 3.77856, -0.0195336, 0.0, 3.18775, -0.0195336, 0.0, 3.1774, -0.10033, 2.46251, 3.1774, -0.10033, 0.0, 3.06184, -1.00241, 0.0, 2.07753, -1.00241, 0.0, 2.07753, 3.55518, 0.0, 2.19405, 3.37618, 2.46251, 2.19405, 3.37618, 0.0, -1.85639, 0.0069285, 0.0, -1.85639, 3.5206, 0.0, -1.68593, 3.55375, 2.46251, -1.68593, 3.55375, 0.0, -3.61779, 1.51303, 0.0, -3.48316, 1.66649, 2.46251, -3.48316, 1.66649, 0.0, -3.61779, 0.0069285, 0.0, -3.81212, -1.00241, 2.46251, -3.81212, -1.00241, 0.0, -1.68593, -1.00241, 0.0, -1.85639, 0.0069285, 2.46251, -1.85639, 0.0069285, 0.0, -1.68593, 3.55375, 0.0, 2.07753, 3.55518, 2.46251, 2.07753, 3.55518, 0.0, -3.81212, 1.47524, 0.0, -3.61779, 1.51303, 2.46251, -3.61779, 1.51303, 0.0, -3.81212, -1.00241, 0.0, -4.64435, -1.00241, 0.0, -1.68593, -1.00241, 2.46251, -1.68593, -1.00241, 0.0, 5.12792, -1.00241, 0.0, 4.99488, -0.0195336, 2.46251, 4.99488, -0.0195336, 0.0, 5.12792, 1.13803, 0.0, 6.47727, -0.390524, 2.46251, 6.47727, -0.390524, 0.0, 3.77856, 1.38953, 0.0, 4.99488, 1.17909, 2.46251, 4.99488, 1.17909, 0.0, 3.18775, -0.0195336, 0.0, 6.47727, -0.390524, 0.0, 6.47727, -1.00241, 2.46251, 6.47727, -1.00241, 0.0, 6.47727, -1.00241, 0.0, 5.12792, -1.00241, 2.46251, 5.12792, -1.00241, 0.0, -5.79284, 0.997594, 0.0, -4.8918, 1.21488, 2.46251, -4.8918, 1.21488, 0.0, -4.64435, 1.27455, 0.0, -3.81212, 1.47524, 2.46251, -3.81212, 1.47524, 0.0, -4.8918, -1.00241, 2.46251, -4.8918, -1.00241, 0.0, -4.64435, -1.00241, 2.46251, -4.8918, -1.00241, 2.70113, -4.8918, -1.00241, 2.46251, -3.81212, 1.47524, 2.70113, -4.64435, -1.00241, 2.70113, -4.64435, 1.27455, 2.46251, -3.81212, 1.47524, 2.70113, -3.81212, 1.47524, 2.46251, -5.79284, -1.00241, 2.70113, -5.79284, -1.00241, 2.46251, -5.79284, -1.00241, 2.46251, -5.79284, -1.00241, 0.0, -4.8918, 1.21488, 2.46251, -5.62135, 1.8177, 0.0, -4.8918, 1.21488, 0.0, -4.64435, 1.27455, 2.70113, -4.64435, 1.27455, 0.0, -5.3739, 1.87738, 2.46251, -4.64435, 1.27455, 2.46251, -5.62135, 1.8177, 0.0, -5.3739, 1.87738, 2.46251, -5.3739, 1.87738, 0.0, -5.62135, 1.8177, 2.46251, -5.3739, 1.87738, 2.70113, -5.3739, 1.87738, 2.46251, -4.64435, 1.27455, 2.70113, -5.62135, 1.8177, 2.70113, -4.8918, 1.21488, 2.70113, -4.8918, 1.21488, 2.70113, -5.62135, 1.8177, 2.46251, -4.8918, 1.21488, 2.46251, -4.64435, 1.27455, 2.46251, -5.3739, 1.87738, 2.70113, -4.64435, 1.27455, 2.70113, -4.8918, 1.21488, -2.70113, -5.79284, 0.997594, -2.46251, -4.8918, 1.21488, -2.46251, -5.79284, -1.00241, -2.70113, -4.8918, 1.21488, -2.70113, -4.8918, -1.00241, -2.70113, 5.12792, -1.00241, -2.70113, 6.47727, -1.00241, -2.46251, 5.12792, -1.00241, -2.46251, 6.47727, -1.00241, -2.70113, 6.47727, -0.390524, -2.46251, 6.47727, -1.00241, -2.46251, 3.18775, -0.0195336, -2.70113, 3.77856, -0.0195336, -2.46251, 3.18775, -0.0195336, -2.46251, 3.77856, -0.0195336, -2.70113, 4.99488, 1.17909, -2.70113, 4.99488, -0.0195336, -2.70113, 4.99488, 1.17909, -2.70113, 3.77856, 1.38953, -2.46251, 4.99488, 1.17909, -2.46251, 6.47727, -0.390524, -2.70113, 5.12792, 1.13803, -2.46251, 6.47727, -0.390524, -2.46251, 5.12792, -1.00241, -2.70113, 6.47727, -0.390524, -2.70113, 6.47727, -1.00241, -2.70113, 4.99488, -0.0195336, -2.70113, 5.12792, -1.00241, -2.46251, 4.99488, -0.0195336, -2.46251, -1.68593, -1.00241, -2.70113, 2.07753, -1.00241, -2.46251, -1.68593, -1.00241, -2.46251, 3.06184, -1.00241, -2.70113, 2.07753, -1.00241, -2.70113, 2.07753, 3.55518, -2.70113, -4.64435, -1.00241, -2.70113, -3.81212, -1.00241, -2.46251, -4.64435, -1.00241, -2.46251, -3.81212, -1.00241, -2.70113, -3.61779, 1.51303, -2.70113, -3.61779, 0.0069285, -2.70113, -3.61779, 1.51303, -2.70113, -3.81212, 1.47524, -2.46251, -3.61779, 1.51303, -2.46251, 2.07753, 3.55518, -2.70113, -1.68593, 3.55375, -2.46251, 2.07753, 3.55518, -2.46251, -1.68593, -1.00241, -2.70113, -1.85639, 0.0069285, -2.70113, -1.68593, -1.00241, -2.46251, -1.85639, 0.0069285, -2.46251, -3.81212, -1.00241, -2.70113, -3.61779, 0.0069285, -2.46251, -3.81212, -1.00241, -2.46251, -3.48316, 1.66649, -2.70113, -3.61779, 1.51303, -2.46251, -3.48316, 1.66649, -2.46251, -3.48316, 1.66649, -2.70113, -3.48316, 0.0069285, -2.70113, -1.85639, 0.0069285, -2.70113, -1.68593, 3.55375, -2.70113, -1.68593, -1.00241, -2.70113, -1.68593, 3.55375, -2.70113, -1.85639, 3.5206, -2.46251, -1.68593, 3.55375, -2.46251, -1.99861, 0.0069285, -2.70113, -1.85639, 0.0069285, -2.46251, -1.99861, 0.0069285, -2.46251, 2.19405, 3.37618, -2.70113, 2.07753, 3.55518, -2.46251, 2.19405, 3.37618, -2.46251, 3.06184, -1.00241, -2.70113, 2.19405, 3.37618, -2.70113, 3.07046, -0.935084, -2.70113, 2.07753, -1.00241, -2.70113, 3.06184, -1.00241, -2.46251, 3.18775, -0.0195336, -2.70113, 3.77856, 1.38953, -2.70113, 3.1774, -0.10033, -2.70113, 3.18775, -0.0195336, -2.46251, 3.1774, -0.10033, -2.46251, 3.77856, -0.0195336, -2.70113, 4.99488, -0.0195336, -2.46251, 5.12792, 1.13803, -2.70113, 4.99488, 1.17909, -2.46251, 5.12792, 1.13803, -2.46251, 5.12792, 1.13803, -2.70113, -5.79284, -1.00241, 0.0, -5.79284, 0.997594, -2.46251, -5.79284, -1.00241, -2.46251, 3.06184, -1.00241, -2.70113, 3.07046, -0.935084, -2.46251, 3.06184, -1.00241, -2.46251, 3.77856, 1.38953, -2.70113, 3.63873, 1.60436, -2.46251, 3.77856, 1.38953, -2.46251, 3.1774, -0.10033, -2.70113, 3.77856, 1.38953, -2.70113, 3.18775, -0.0195336, -2.70113, -5.79284, 0.997594, -2.70113, -5.79284, -1.00241, -2.70113, 3.07046, -0.935084, -2.70113, 3.1774, -0.10033, -2.46251, 3.07046, -0.935084, -2.46251, 3.63873, 1.60436, -2.46251, 1.98461, 3.37618, -2.46251, 3.4293, 1.60436, -2.46251, 3.63873, 1.60436, -2.70113, 2.19405, 3.37618, -2.46251, 3.63873, 1.60436, -2.46251, 3.07046, -0.935084, -2.70113, 3.63873, 1.60436, -2.70113, 3.1774, -0.10033, -2.70113, -1.99861, 0.0069285, -2.70113, -1.85639, 3.5206, -2.70113, -1.85639, 0.0069285, -2.70113, -1.85639, 3.5206, -2.70113, -1.99861, 3.3585, -2.46251, -1.85639, 3.5206, -2.46251, -3.61779, 0.0069285, -2.70113, -3.48316, 0.0069285, -2.46251, -3.61779, 0.0069285, -2.46251, -3.48316, 0.0069285, -2.70113, -1.99861, 3.3585, -2.70113, -3.48316, 1.66649, -2.46251, -1.99861, 3.3585, -2.46251, -3.48316, 0.0069285, -2.70113, -1.99861, 3.3585, -2.70113, -1.99861, 3.3585, -2.46251, -3.29654, 1.66649, -2.46251, -1.812, 3.3585, -2.46251, -1.99861, 0.0069285, 0.0, -3.48316, 0.0069285, 0.0, -1.99861, 3.3585, -2.46251, -3.29654, 1.66649, -2.46251, -3.61779, 0.0069285, 0.0, -1.85639, 3.5206, -2.46251, -1.99861, 3.3585, 0.0, -1.85639, 3.5206, 0.0, 3.63873, 1.60436, -2.46251, 3.07046, -0.935084, -2.46251, 3.1774, -0.10033, 0.0, 3.07046, -0.935084, 0.0, 3.77856, 1.38953, -2.46251, 3.63873, 1.60436, 0.0, 3.77856, 1.38953, 0.0, 1.98461, 3.37618, -2.46251, 3.06184, -1.00241, -2.46251, 3.07046, -0.935084, 0.0, 3.06184, -1.00241, 0.0, 5.12792, 1.13803, -2.46251, 4.99488, 1.17909, 0.0, 5.12792, 1.13803, 0.0, 4.99488, -0.0195336, 0.0, 3.77856, -0.0195336, 0.0, 3.1774, -0.10033, -2.46251, 3.18775, -0.0195336, 0.0, 3.1774, -0.10033, 0.0, 3.06184, -1.00241, 0.0, 2.07753, -1.00241, 0.0, 2.19405, 3.37618, -2.46251, 2.07753, 3.55518, 0.0, 2.19405, 3.37618, 0.0, -1.85639, 0.0069285, 0.0, -1.68593, 3.55375, -2.46251, -1.85639, 3.5206, 0.0, -1.68593, 3.55375, 0.0, -3.48316, 1.66649, -2.46251, -3.61779, 1.51303, 0.0, -3.48316, 1.66649, 0.0, -3.81212, -1.00241, -2.46251, -3.61779, 0.0069285, 0.0, -3.81212, -1.00241, 0.0, -1.85639, 0.0069285, -2.46251, -1.68593, -1.00241, 0.0, -1.85639, 0.0069285, 0.0, 2.07753, 3.55518, -2.46251, -1.68593, 3.55375, 0.0, 2.07753, 3.55518, 0.0, -3.61779, 1.51303, -2.46251, -3.81212, 1.47524, 0.0, -3.61779, 1.51303, 0.0, -3.81212, -1.00241, 0.0, -4.64435, -1.00241, 0.0, -1.68593, -1.00241, -2.46251, -1.68593, -1.00241, 0.0, 4.99488, -0.0195336, -2.46251, 5.12792, -1.00241, 0.0, 4.99488, -0.0195336, 0.0, 6.47727, -0.390524, -2.46251, 5.12792, 1.13803, 0.0, 6.47727, -0.390524, 0.0, 4.99488, 1.17909, -2.46251, 3.77856, 1.38953, 0.0, 4.99488, 1.17909, 0.0, 3.18775, -0.0195336, 0.0, 6.47727, -1.00241, -2.46251, 6.47727, -0.390524, 0.0, 6.47727, -1.00241, 0.0, 5.12792, -1.00241, -2.46251, 6.47727, -1.00241, 0.0, 5.12792, -1.00241, 0.0, -4.8918, 1.21488, -2.46251, -5.79284, 0.997594, 0.0, -4.8918, 1.21488, 0.0, -3.81212, 1.47524, -2.46251, -4.64435, 1.27455, 0.0, -3.81212, 1.47524, 0.0, -4.8918, -1.00241, -2.46251, -4.8918, -1.00241, 0.0, -4.8918, -1.00241, -2.70113, -4.64435, -1.00241, -2.46251, -4.8918, -1.00241, -2.46251, -4.64435, -1.00241, -2.70113, -3.81212, 1.47524, -2.70113, -3.81212, -1.00241, -2.70113, -3.81212, 1.47524, -2.70113, -4.64435, 1.27455, -2.46251, -3.81212, 1.47524, -2.46251, -5.79284, -1.00241, -2.70113, -5.79284, -1.00241, -2.46251, -5.79284, -1.00241, -2.46251, -5.79284, -1.00241, 0.0, -4.8918, 1.21488, -2.46251, -4.64435, 1.27455, -2.70113, -5.3739, 1.87738, -2.46251, -4.64435, 1.27455, -2.46251, -5.3739, 1.87738, -2.46251, -5.62135, 1.8177, 0.0, -5.3739, 1.87738, 0.0, -5.3739, 1.87738, -2.70113, -5.62135, 1.8177, -2.46251, -5.3739, 1.87738, -2.46251, -5.62135, 1.8177, -2.70113, -4.64435, 1.27455, -2.70113, -4.8918, 1.21488, -2.70113, -5.3739, 1.87738, 0.0, -4.8918, 1.21488, 0.0, -4.64435, 1.27455, 0.0, -5.62135, 1.8177, -2.46251, -4.8918, 1.21488, -2.70113, -4.8918, 1.21488, -2.46251, -5.3739, 1.87738, -2.70113, -4.64435, 1.27455, -2.46251, -4.64435, 1.27455, -2.70113, -5.79284, 0.997594, 2.46251, -5.79284, 0.997594, 2.70113, -4.8918, 1.21488, 2.70113, -5.79284, 0.997594, 2.70113, 6.47727, -1.00241, 2.46251, 6.47727, -1.00241, 2.70113, 5.12792, -1.00241, 2.70113, 6.47727, -0.390524, 2.70113, 3.77856, 1.38953, 2.46251, 3.77856, 1.38953, 2.70113, 4.99488, 1.17909, 2.70113, 5.12792, 1.13803, 2.46251, 5.12792, 1.13803, 2.70113, 6.47727, -0.390524, 2.70113, 5.12792, 1.13803, 2.70113, 5.12792, -1.00241, 2.46251, 5.12792, -1.00241, 2.70113, 4.99488, -0.0195336, 2.70113, -3.81212, -1.00241, 2.70113, -3.81212, 1.47524, 2.70113, -1.68593, 3.55375, 2.46251, -1.68593, 3.55375, 2.70113, 2.07753, 3.55518, 2.70113, -1.68593, -1.00241, 2.46251, -1.68593, -1.00241, 2.70113, -1.85639, 0.0069285, 2.70113, -3.61779, 0.0069285, 2.70113, -3.61779, 1.51303, 2.46251, -3.61779, 1.51303, 2.70113, -3.48316, 1.66649, 2.70113, -1.85639, 3.5206, 2.46251, -1.85639, 3.5206, 2.70113, -1.68593, 3.55375, 2.70113, -1.85639, 0.0069285, 2.70113, 2.07753, 3.55518, 2.46251, 2.07753, 3.55518, 2.70113, 2.19405, 3.37618, 2.70113, 2.19405, 3.37618, 2.70113, 3.06184, -1.00241, 2.70113, 3.18775, -0.0195336, 2.46251, 3.18775, -0.0195336, 2.70113, 3.1774, -0.10033, 2.70113, 4.99488, -0.0195336, 2.70113, 4.99488, 1.17909, 2.46251, 4.99488, 1.17909, 2.70113, 5.12792, 1.13803, 2.70113, 5.12792, 1.13803, 2.70113, -5.79284, 0.997594, 0.0, 3.07046, -0.935084, 2.70113, 3.63873, 1.60436, 2.46251, 3.63873, 1.60436, 2.70113, 3.77856, 1.38953, 2.70113, 3.77856, 1.38953, 2.70113, 3.63873, 1.60436, 2.70113, 3.1774, -0.10033, 2.70113, -5.79284, 0.997594, 2.70113, -5.79284, 0.997594, 2.46251, -5.79284, -1.00241, 2.46251, 3.1774, -0.10033, 2.46251, 3.1774, -0.10033, 2.70113, 3.07046, -0.935084, 2.70113, 1.98461, 3.37618, 2.46251, 2.19405, 3.37618, 2.46251, 3.63873, 1.60436, 2.46251, 2.19405, 3.37618, 2.46251, 2.19405, 3.37618, 2.70113, 3.63873, 1.60436, 2.70113, 3.63873, 1.60436, 2.70113, 2.19405, 3.37618, 2.70113, 3.07046, -0.935084, 2.70113, -1.99861, 3.3585, 2.70113, -1.99861, 0.0069285, 2.70113, -3.48316, 1.66649, 2.46251, -3.48316, 1.66649, 2.70113, -1.99861, 3.3585, 2.70113, -3.48316, 1.66649, 2.70113, -3.29654, 1.66649, 2.46251, -3.48316, 1.66649, 2.46251, -1.99861, 3.3585, 2.46251, -1.812, 3.3585, 2.46251, -3.48316, 1.66649, 2.46251, -1.99861, 3.3585, 2.46251, 3.4293, 1.60436, 2.46251, 3.1774, -0.10033, 0.0, 3.63873, 1.60436, 2.46251, 2.19405, 3.37618, 2.46251, 3.07046, -0.935084, 2.46251, 4.99488, 1.17909, 0.0, 4.99488, 1.17909, 2.46251, 5.12792, 1.13803, 2.46251, 4.99488, -0.0195336, 2.46251, 3.18775, -0.0195336, 2.46251, 2.07753, 3.55518, 2.46251, -1.85639, 3.5206, 2.46251, -3.61779, 1.51303, 2.46251, -3.61779, 0.0069285, 2.46251, -1.68593, -1.00241, 2.46251, -1.68593, 3.55375, 0.0, -1.68593, 3.55375, 2.46251, 2.07753, 3.55518, 2.46251, -3.81212, 1.47524, 2.46251, 5.12792, -1.00241, 0.0, 5.12792, -1.00241, 2.46251, 4.99488, -0.0195336, 2.46251, 5.12792, 1.13803, 2.46251, 3.77856, 1.38953, 2.46251, 6.47727, -1.00241, 2.46251, -5.79284, 0.997594, 0.0, -5.79284, 0.997594, 2.46251, -4.8918, 1.21488, 2.46251, -4.64435, 1.27455, 0.0, -4.64435, 1.27455, 2.46251, -3.81212, 1.47524, 2.46251, -4.64435, -1.00241, 2.70113, -4.64435, 1.27455, 2.46251, -4.64435, 1.27455, 2.70113, -3.81212, 1.47524, 2.70113, -4.8918, -1.00241, 2.46251, -4.8918, -1.00241, 2.70113, -5.79284, -1.00241, 2.70113, -4.8918, 1.21488, 2.46251, -5.62135, 1.8177, 2.46251, -5.62135, 1.8177, 0.0, -4.64435, 1.27455, 0.0, -5.3739, 1.87738, 0.0, -5.3739, 1.87738, 2.46251, -5.62135, 1.8177, 2.46251, -5.62135, 1.8177, 2.46251, -5.62135, 1.8177, 2.70113, -5.3739, 1.87738, 2.70113, -4.64435, 1.27455, 2.70113, -5.3739, 1.87738, 2.70113, -5.62135, 1.8177, 2.70113, -4.8918, 1.21488, 2.70113, -5.62135, 1.8177, 2.70113, -5.62135, 1.8177, 2.46251, -4.64435, 1.27455, 2.46251, -5.3739, 1.87738, 2.46251, -5.3739, 1.87738, 2.70113, -4.8918, 1.21488, -2.70113, -5.79284, 0.997594, -2.70113, -5.79284, 0.997594, -2.46251, -5.79284, -1.00241, -2.70113, -5.79284, 0.997594, -2.70113, -4.8918, 1.21488, -2.70113, 5.12792, -1.00241, -2.70113, 6.47727, -1.00241, -2.70113, 6.47727, -1.00241, -2.46251, 6.47727, -0.390524, -2.70113, 4.99488, 1.17909, -2.70113, 3.77856, 1.38953, -2.70113, 3.77856, 1.38953, -2.46251, 6.47727, -0.390524, -2.70113, 5.12792, 1.13803, -2.70113, 5.12792, 1.13803, -2.46251, 4.99488, -0.0195336, -2.70113, 5.12792, -1.00241, -2.70113, 5.12792, -1.00241, -2.46251, -3.81212, -1.00241, -2.70113, -3.81212, -1.00241, -2.70113, -3.81212, 1.47524, -2.70113, -3.61779, 1.51303, -2.70113, -3.81212, 1.47524, -2.70113, 2.07753, 3.55518, -2.70113, -1.68593, 3.55375, -2.70113, -1.68593, 3.55375, -2.46251, -1.68593, 3.55375, -2.70113, -1.85639, 0.0069285, -2.70113, -1.68593, -1.00241, -2.70113, -1.68593, -1.00241, -2.46251, -3.61779, 0.0069285, -2.70113, -3.48316, 1.66649, -2.70113, -3.61779, 1.51303, -2.70113, -3.61779, 1.51303, -2.46251, -1.68593, 3.55375, -2.70113, -1.68593, 3.55375, -2.70113, -1.85639, 3.5206, -2.70113, -1.85639, 3.5206, -2.46251, -1.85639, 0.0069285, -2.70113, 2.19405, 3.37618, -2.70113, 2.07753, 3.55518, -2.70113, 2.07753, 3.55518, -2.46251, 3.06184, -1.00241, -2.70113, 2.07753, 3.55518, -2.70113, 2.19405, 3.37618, -2.70113, 3.06184, -1.00241, -2.70113, 3.1774, -0.10033, -2.70113, 3.18775, -0.0195336, -2.70113, 3.18775, -0.0195336, -2.46251, 4.99488, -0.0195336, -2.70113, 5.12792, 1.13803, -2.70113, 4.99488, 1.17909, -2.70113, 4.99488, 1.17909, -2.46251, -5.79284, 0.997594, 0.0, 3.07046, -0.935084, -2.70113, 3.77856, 1.38953, -2.70113, 3.63873, 1.60436, -2.70113, 3.63873, 1.60436, -2.46251, 3.1774, -0.10033, -2.70113, 3.63873, 1.60436, -2.70113, 3.77856, 1.38953, -2.70113, -5.79284, -1.00241, -2.46251, -5.79284, 0.997594, -2.46251, -5.79284, 0.997594, -2.70113, 3.07046, -0.935084, -2.70113, 3.1774, -0.10033, -2.70113, 3.1774, -0.10033, -2.46251, 3.63873, 1.60436, -2.46251, 2.19405, 3.37618, -2.46251, 1.98461, 3.37618, -2.46251, 3.63873, 1.60436, -2.70113, 2.19405, 3.37618, -2.70113, 2.19405, 3.37618, -2.46251, 3.63873, 1.60436, -2.70113, -1.99861, 3.3585, -2.70113, -1.99861, 0.0069285, -2.70113, -1.99861, 3.3585, -2.70113, -3.48316, 1.66649, -2.70113, -3.48316, 1.66649, -2.46251, -3.48316, 1.66649, -2.70113, -1.99861, 3.3585, -2.46251, -3.48316, 1.66649, -2.46251, -3.29654, 1.66649, -2.46251, -1.812, 3.3585, -2.46251, -3.29654, 1.66649, -2.46251, -3.48316, 1.66649, -2.46251, -3.48316, 1.66649, 0.0, -1.99861, 3.3585, -2.46251, 3.4293, 1.60436, -2.46251, 3.1774, -0.10033, 0.0, 3.63873, 1.60436, -2.46251, 1.98461, 3.37618, -2.46251, 2.19405, 3.37618, -2.46251, 2.19405, 3.37618, 0.0, 3.07046, -0.935084, -2.46251, 5.12792, 1.13803, -2.46251, 4.99488, 1.17909, -2.46251, 4.99488, 1.17909, 0.0, 4.99488, -0.0195336, -2.46251, 3.18775, -0.0195336, -2.46251, 2.07753, 3.55518, -2.46251, -1.85639, 3.5206, -2.46251, -3.61779, 1.51303, -2.46251, -3.61779, 0.0069285, -2.46251, -1.68593, -1.00241, -2.46251, 2.07753, 3.55518, -2.46251, -1.68593, 3.55375, -2.46251, -1.68593, 3.55375, 0.0, -3.81212, 1.47524, -2.46251, 4.99488, -0.0195336, -2.46251, 5.12792, -1.00241, -2.46251, 5.12792, -1.00241, 0.0, 5.12792, 1.13803, -2.46251, 3.77856, 1.38953, -2.46251, 6.47727, -1.00241, -2.46251, -4.8918, 1.21488, -2.46251, -5.79284, 0.997594, -2.46251, -5.79284, 0.997594, 0.0, -3.81212, 1.47524, -2.46251, -4.64435, 1.27455, -2.46251, -4.64435, 1.27455, 0.0, -4.64435, -1.00241, -2.70113, -3.81212, 1.47524, -2.70113, -4.64435, 1.27455, -2.70113, -4.64435, 1.27455, -2.46251, -5.79284, -1.00241, -2.70113, -4.8918, -1.00241, -2.70113, -4.8918, -1.00241, -2.46251, -5.62135, 1.8177, -2.46251, -4.8918, 1.21488, -2.46251, -5.3739, 1.87738, -2.46251, -5.62135, 1.8177, -2.46251, -5.3739, 1.87738, -2.70113, -5.62135, 1.8177, -2.70113, -5.62135, 1.8177, -2.46251, -5.62135, 1.8177, -2.70113, -5.3739, 1.87738, -2.70113, -4.64435, 1.27455, -2.70113, -5.3739, 1.87738, 0.0, -5.62135, 1.8177, 0.0, -4.8918, 1.21488, 0.0, -5.62135, 1.8177, -2.46251, -5.62135, 1.8177, -2.70113, -4.8918, 1.21488, -2.70113, -5.3739, 1.87738, -2.70113, -5.3739, 1.87738, -2.46251, -4.64435, 1.27455, -2.46251),
		Vector3Array(-0.234427, 0.972134, 0.0, -0.234427, 0.972134, 0.0, -0.234427, 0.972134, 0.0, 0.0, 0.0, 1.0, 0.0, 0.0, 1.0, 0.0, 0.0, 1.0, 0.0, -1.0, 0.0, 0.0, -1.0, 0.0, 0.0, -1.0, 0.0, 1.0, 0.0, 0.0, 1.0, 0.0, 0.0, 1.0, 0.0, 0.0, 0.0, -1.0, 0.0, 0.0, -1.0, 0.0, 0.0, -1.0, 0.0, 0.0, 0.0, 1.0, 0.0, 0.0, 1.0, 0.0, 0.0, 1.0, 0.170487, 0.98536, 0.0, 0.170487, 0.98536, 0.0, 0.170487, 0.98536, 0.0, 0.749683, 0.661796, 0.0, 0.749683, 0.661796, 0.0, 0.749683, 0.661796, 0.0, 0.0, 0.0, 1.0, 0.0, 0.0, 1.0, 0.0, 0.0, 1.0, -0.990964, -0.13413, 0.0, -0.990964, -0.13413, 0.0, -0.990964, -0.13413, 0.0, 0.0, -1.0, 0.0, 0.0, -1.0, 0.0, 0.0, -1.0, 0.0, 0.0, 0.0, 1.0, 0.0, 0.0, 1.0, 0.0, 0.0, 1.0, 0.0, -1.0, 0.0, 0.0, -1.0, 0.0, 0.0, -1.0, 0.0, 0.0, 0.0, 1.0, 0.0, 0.0, 1.0, 0.0, 0.0, 1.0, -0.190904, 0.981609, 0.0, -0.190904, 0.981609, 0.0, -0.190904, 0.981609, 0.0, -0.000377932, 1.0, 0.0, -0.000377932, 1.0, 0.0, -0.000377932, 1.0, 0.0, 0.0, 0.0, 1.0, -0.986037, -0.166524, 0.0, -0.986037, -0.166524, 0.0, -0.986037, -0.166524, 0.0, 0.981965, -0.18906, 0.0, 0.981965, -0.18906, 0.0, 0.981965, -0.18906, 0.0, -0.751689, 0.659518, 0.0, -0.751689, 0.659518, 0.0, -0.751689, 0.659518, 0.0, 0.0, 0.0, 1.0, 0.0, 0.0, 1.0, 0.0, 0.0, 1.0, 0.0, 0.0, 1.0, -0.190904, 0.981609, 0.0, -0.190904, 0.981609, 0.0, -0.190904, 0.981609, 0.0, 0.0, -1.0, 0.0, 0.0, -1.0, 0.0, 0.0, -1.0, 0.0, 0.838096, 0.545523, 0.0, 0.838096, 0.545523, 0.0, 0.838096, 0.545523, 0.0, 0.0, 5.42254e-07, 1.0, 0.0, 5.42254e-07, 1.0, 0.0, 5.42254e-07, 1.0, 0.0, -1.0, 0.0, 0.0, -1.0, 0.0, 0.0, 0.0, 1.0, 0.0, 0.0, 1.0, 0.991894, -0.127064, 8.90545e-07, 0.991894, -0.127064, 8.90545e-07, 0.991894, -0.127064, 8.90545e-07, 0.0, -1.0, 0.0, 0.0, -1.0, 0.0, 0.294895, 0.95553, 0.0, 0.294895, 0.95553, 0.0, 0.294895, 0.95553, 0.0, 0.0, 0.0, 1.0, 0.0, 0.0, 1.0, 0.0, 0.0, 1.0, -1.0, 0.0, 0.0, -1.0, 0.0, 0.0, -1.0, 0.0, 0.0, 0.991894, -0.127064, 0.0, 0.991894, -0.127064, 0.0, 0.991894, -0.127064, 0.0, 0.838095, 0.545524, 0.0, 0.838095, 0.545524, 0.0, 0.838095, 0.545524, 0.0, 0.0, 3.70837e-06, -1.0, 0.0, 3.70837e-06, -1.0, 0.0, 3.70837e-06, -1.0, -1.0, 0.0, 0.0, -1.0, 0.0, 0.0, 0.991894, -0.127068, 0.0, 0.991894, -0.127068, 0.0, 0.991894, -0.127068, 0.0, 0.0, 1.60624e-06, -1.0, 0.0, 1.60624e-06, -1.0, 0.0, 1.60624e-06, -1.0, 0.775024, 0.631932, 0.0, 0.775024, 0.631932, 0.0, 0.775024, 0.631932, 0.0, 0.0, -2.93898e-07, -1.0, 0.0, -2.93898e-07, -1.0, 0.0, -2.93898e-07, -1.0, 0.0, 0.0, 1.0, 0.0, 0.0, 1.0, -0.751689, 0.659518, 0.0, -0.751689, 0.659518, 0.0, -0.751689, 0.659518, 0.0, 0.0, -1.0, 0.0, 0.0, -1.0, 0.0, 0.0, -1.0, 0.0, 0.0, -1.0, 0.0, -0.75169, 0.659517, 0.0, -0.75169, 0.659517, 0.0, -0.75169, 0.659517, 0.0, 0.0, 0.0, 1.0, 0.0, 0.0, 1.0, 0.0, 5.66311e-07, -1.0, 0.0, 5.66311e-07, -1.0, 0.0, 5.66311e-07, -1.0, 0.0, -1.0, 0.0, 0.0, -1.0, 0.0, 0.0, -1.0, 0.0, 0.0, -1.0, 0.0, 0.0, -1.0, 0.0, 0.0, 1.0, 0.0, 0.0, 1.0, 0.0, 0.0, 1.0, 0.0, 0.0, -1.0, 0.0, -0.751689, 0.659517, 0.0, -0.751689, 0.659517, 0.0, -0.751689, 0.659517, 0.0, 0.0, 1.0, 0.0, 0.0, 1.0, 0.0, 0.0, 1.0, 0.0, 0.991894, -0.127068, 0.0, 0.991894, -0.127068, 0.0, 0.991894, -0.127068, 0.0, 0.838095, 0.545524, 0.0, 0.838095, 0.545524, 0.0, 0.838095, 0.545524, 0.0, 0.0, -1.0, 0.0, 0.0, -1.0, 0.0, 0.0, -1.0, 0.0, 0.991894, -0.127064, 0.0, 0.991894, -0.127064, 0.0, 0.991894, -0.127064, 0.0, 0.294896, 0.95553, 0.0, 0.294896, 0.95553, 0.0, 0.294896, 0.95553, 0.0, 0.0, -1.0, 0.0, 0.0, -1.0, 0.0, 0.991894, -0.127064, 0.0, 0.991894, -0.127064, 0.0, 0.991894, -0.127064, 0.0, 0.0, -1.0, 0.0, 0.0, -1.0, 0.0, 0.838095, 0.545524, 0.0, 0.838095, 0.545524, 0.0, 0.838095, 0.545524, 0.0, 0.0, -1.0, 0.0, -0.190904, 0.981609, 0.0, -0.190904, 0.981609, 0.0, -0.190904, 0.981609, 0.0, -0.751689, 0.659517, 0.0, -0.751689, 0.659517, 0.0, -0.751689, 0.659517, 0.0, 0.981966, -0.18906, 0.0, 0.981966, -0.18906, 0.0, 0.981966, -0.18906, 0.0, -0.986037, -0.166524, 0.0, -0.986037, -0.166524, 0.0, -0.986037, -0.166524, 0.0, -0.000377864, 1.0, 0.0, -0.000377864, 1.0, 0.0, -0.000377864, 1.0, 0.0, -0.190905, 0.981609, 0.0, -0.190905, 0.981609, 0.0, -0.190905, 0.981609, 0.0, 0.0, -1.0, 0.0, 0.0, -1.0, 0.0, 0.0, -1.0, 0.0, 0.0, -1.0, 0.0, -0.990964, -0.13413, 0.0, -0.990964, -0.13413, 0.0, -0.990964, -0.13413, 0.0, 0.749684, 0.661796, 0.0, 0.749684, 0.661796, 0.0, 0.749684, 0.661796, 0.0, 0.170487, 0.98536, 0.0, 0.170487, 0.98536, 0.0, 0.170487, 0.98536, 0.0, 0.0, -1.0, 0.0, 1.0, 0.0, 0.0, 1.0, 0.0, 0.0, 1.0, 0.0, 0.0, 0.0, -1.0, 0.0, 0.0, -1.0, 0.0, 0.0, -1.0, 0.0, -0.234427, 0.972134, 0.0, -0.234427, 0.972134, 0.0, -0.234427, 0.972134, 0.0, -0.234427, 0.972134, 0.0, -0.234427, 0.972134, 0.0, -0.234427, 0.972134, 0.0, 0.0, -1.0, 0.0, 0.0, -1.0, 0.0, 0.0, -1.0, 0.0, 0.0, -1.0, 0.0, 0.0, -1.0, 0.0, 0.0, 0.0, 1.0, 0.0, 0.0, 1.0, -0.234427, 0.972134, 0.0, -0.234427, 0.972134, 0.0, -0.234427, 0.972134, 0.0, 0.0, -1.0, 0.0, 0.0, -1.0, 0.0, 0.0, -1.0, 0.0, 0.0, -1.0, 0.0, -0.636979, -0.770881, 0.0, -0.636979, -0.770881, 0.0, -0.636979, -0.770881, 0.0, 0.0, 0.0, 1.0, 0.636979, 0.770881, 0.0, 0.636979, 0.770881, 0.0, 0.636979, 0.770881, 0.0, -0.234426, 0.972134, 0.0, -0.234426, 0.972134, 0.0, -0.234426, 0.972134, 0.0, -0.234426, 0.972134, 0.0, -0.234426, 0.972134, 0.0, -0.234426, 0.972134, 0.0, 0.0, 1.2372e-06, 1.0, 0.0, 1.2372e-06, 1.0, 0.0, 1.2372e-06, 1.0, -0.636978, -0.770882, 0.0, -0.636978, -0.770882, 0.0, -0.636978, -0.770882, 0.0, 0.636979, 0.770881, 0.0, 0.636979, 0.770881, 0.0, 0.636979, 0.770881, 0.0, -0.234427, 0.972134, 0.0, -0.234427, 0.972134, 0.0, -0.234427, 0.972134, 0.0, 0.0, 0.0, -1.0, 0.0, 0.0, -1.0, 0.0, 0.0, -1.0, 0.0, -1.0, 0.0, 0.0, -1.0, 0.0, 0.0, -1.0, 0.0, 1.0, 0.0, 0.0, 1.0, 0.0, 0.0, 1.0, 0.0, 0.0, 0.0, -1.0, 0.0, 0.0, -1.0, 0.0, 0.0, -1.0, 0.0, 0.0, 0.0, -1.0, 0.0, 0.0, -1.0, 0.0, 0.0, -1.0, 0.170487, 0.98536, 0.0, 0.170487, 0.98536, 0.0, 0.170487, 0.98536, 0.0, 0.749683, 0.661796, 0.0, 0.749683, 0.661796, 0.0, 0.749683, 0.661796, 0.0, 0.0, 0.0, -1.0, 0.0, 0.0, -1.0, 0.0, 0.0, -1.0, -0.990964, -0.13413, 0.0, -0.990964, -0.13413, 0.0, -0.990964, -0.13413, 0.0, 0.0, -1.0, 0.0, 0.0, -1.0, 0.0, 0.0, -1.0, 0.0, 0.0, 0.0, -1.0, 0.0, 0.0, -1.0, 0.0, 0.0, -1.0, 0.0, -1.0, 0.0, 0.0, -1.0, 0.0, 0.0, -1.0, 0.0, 0.0, 0.0, -1.0, 0.0, 0.0, -1.0, 0.0, 0.0, -1.0, -0.190904, 0.981609, 0.0, -0.190904, 0.981609, 0.0, -0.190904, 0.981609, 0.0, -0.000377932, 1.0, 0.0, -0.000377932, 1.0, 0.0, -0.000377932, 1.0, 0.0, 0.0, 0.0, -1.0, -0.986037, -0.166524, 0.0, -0.986037, -0.166524, 0.0, -0.986037, -0.166524, 0.0, 0.981965, -0.18906, 0.0, 0.981965, -0.18906, 0.0, 0.981965, -0.18906, 0.0, -0.751689, 0.659518, 0.0, -0.751689, 0.659518, 0.0, -0.751689, 0.659518, 0.0, 0.0, 0.0, -1.0, 0.0, 0.0, -1.0, 0.0, 0.0, -1.0, 0.0, 0.0, -1.0, 0.0, 0.0, -1.0, -0.190904, 0.981609, 0.0, -0.190904, 0.981609, 0.0, -0.190904, 0.981609, 0.0, 0.0, -1.0, 0.0, 0.0, -1.0, 0.0, 0.0, -1.0, 0.0, 0.838096, 0.545523, 0.0, 0.838096, 0.545523, 0.0, 0.838096, 0.545523, 0.0, 0.0, 0.0, -1.0, 0.0, 0.0, -1.0, 0.0, 0.0, -1.0, 0.0, -1.0, 0.0, 0.0, -1.0, 0.0, 0.0, 0.0, -1.0, 0.0, 0.0, -1.0, 0.991894, -0.127064, 0.0, 0.991894, -0.127064, 0.0, 0.991894, -0.127064, 0.0, 0.0, -1.0, 0.0, 0.0, -1.0, 0.0, 0.294895, 0.95553, 0.0, 0.294895, 0.95553, 0.0, 0.294895, 0.95553, 0.0, 0.0, 0.0, -1.0, -1.0, 0.0, 0.0, -1.0, 0.0, 0.0, -1.0, 0.0, 0.0, 0.991894, -0.127064, 0.0, 0.991894, -0.127064, 0.0, 0.991894, -0.127064, 0.0, 0.838095, 0.545524, 0.0, 0.838095, 0.545524, 0.0, 0.838095, 0.545524, 0.0, 0.0, 7.19197e-06, 1.0, 0.0, 7.19197e-06, 1.0, 0.0, 7.19197e-06, 1.0, -1.0, 0.0, 0.0, -1.0, 0.0, 0.0, 0.991894, -0.127068, 0.0, 0.991894, -0.127068, 0.0, 0.991894, -0.127068, 0.0, 0.0, 1.28499e-06, 1.0, 0.0, 1.28499e-06, 1.0, 0.0, 1.28499e-06, 1.0, 0.775024, 0.631932, 0.0, 0.775024, 0.631932, 0.0, 0.775024, 0.631932, 0.0, 0.0, 0.0, 1.0, 0.0, 0.0, 1.0, 0.0, 0.0, 1.0, 0.0, 0.0, -1.0, 0.0, 0.0, -1.0, 0.0, 0.0, -1.0, -0.751689, 0.659518, 0.0, -0.751689, 0.659518, 0.0, -0.751689, 0.659518, 0.0, 0.0, -1.0, 0.0, 0.0, -1.0, 0.0, 0.0, -1.0, 0.0, 0.0, -1.0, 0.0, -0.75169, 0.659517, 0.0, -0.75169, 0.659517, 0.0, -0.75169, 0.659517, 0.0, 0.0, 0.0, -1.0, 0.0, 0.0, -1.0, 0.0, 0.0, 1.0, 0.0, 0.0, 1.0, 0.0, 0.0, 1.0, 0.0, -1.0, 0.0, 0.0, -1.0, 0.0, 0.0, -1.0, 0.0, 0.0, 1.0, 0.0, 0.0, -1.0, 0.0, -0.751689, 0.659517, 0.0, -0.751689, 0.659517, 0.0, -0.751689, 0.659517, 0.0, 0.0, 1.0, 0.0, 0.991894, -0.127068, 0.0, 0.991894, -0.127068, 0.0, 0.991894, -0.127068, 0.0, 0.838095, 0.545524, 0.0, 0.838095, 0.545524, 0.0, 0.838095, 0.545524, 0.0, 0.0, -1.0, 0.0, 0.991894, -0.127064, 0.0, 0.991894, -0.127064, 0.0, 0.991894, -0.127064, 0.0, 0.294896, 0.95553, 0.0, 0.294896, 0.95553, 0.0, 0.294896, 0.95553, 0.0, 0.0, -1.0, 0.0, 0.0, -1.0, 0.0, 0.991894, -0.127064, 0.0, 0.991894, -0.127064, 0.0, 0.991894, -0.127064, 0.0, 0.0, -1.0, 0.0, 0.0, -1.0, 0.0, 0.838095, 0.545524, 0.0, 0.838095, 0.545524, 0.0, 0.838095, 0.545524, 0.0, 0.0, -1.0, 0.0, -0.190904, 0.981609, 0.0, -0.190904, 0.981609, 0.0, -0.190904, 0.981609, 0.0, -0.751689, 0.659517, 0.0, -0.751689, 0.659517, 0.0, -0.751689, 0.659517, 0.0, 0.981966, -0.18906, 0.0, 0.981966, -0.18906, 0.0, 0.981966, -0.18906, 0.0, -0.986037, -0.166524, 0.0, -0.986037, -0.166524, 0.0, -0.986037, -0.166524, 0.0, -0.000377864, 1.0, 0.0, -0.000377864, 1.0, 0.0, -0.000377864, 1.0, 0.0, -0.190905, 0.981609, 0.0, -0.190905, 0.981609, 0.0, -0.190905, 0.981609, 0.0, 0.0, -1.0, 0.0, 0.0, -1.0, 0.0, 0.0, -1.0, 0.0, 0.0, -1.0, 0.0, -0.990964, -0.13413, 0.0, -0.990964, -0.13413, 0.0, -0.990964, -0.13413, 0.0, 0.749684, 0.661796, 0.0, 0.749684, 0.661796, 0.0, 0.749684, 0.661796, 0.0, 0.170487, 0.98536, 0.0, 0.170487, 0.98536, 0.0, 0.170487, 0.98536, 0.0, 0.0, -1.0, 0.0, 1.0, 0.0, 0.0, 1.0, 0.0, 0.0, 1.0, 0.0, 0.0, 0.0, -1.0, 0.0, 0.0, -1.0, 0.0, 0.0, -1.0, 0.0, -0.234427, 0.972134, 0.0, -0.234427, 0.972134, 0.0, -0.234427, 0.972134, 0.0, -0.234427, 0.972134, 0.0, -0.234427, 0.972134, 0.0, -0.234427, 0.972134, 0.0, 0.0, -1.0, 0.0, 0.0, -1.0, 0.0, 0.0, -1.0, 0.0, 0.0, -1.0, 0.0, 0.0, -1.0, 0.0, 0.0, 0.0, -1.0, 0.0, 0.0, -1.0, 0.0, 0.0, -1.0, -0.234427, 0.972134, 0.0, -0.234427, 0.972134, 0.0, -0.234427, 0.972134, 0.0, 0.0, -1.0, 0.0, 0.0, -1.0, 0.0, 0.0, -1.0, 0.0, 0.0, -1.0, 0.0, -0.636979, -0.770881, 0.0, 0.0, 0.0, -1.0, 0.636979, 0.770881, 0.0, 0.636979, 0.770881, 0.0, -0.234426, 0.972134, 0.0, -0.234426, 0.972134, 0.0, -0.234426, 0.972134, 0.0, -0.234426, 0.972134, 0.0, -0.234426, 0.972134, 0.0, -0.234426, 0.972134, 0.0, 0.0, 1.2372e-06, -1.0, 0.0, 1.2372e-06, -1.0, 0.0, 1.2372e-06, -1.0, 0.0, 0.0, 1.0, 0.0, 0.0, 1.0, 0.0, 0.0, 1.0, -0.636978, -0.770882, 0.0, -0.636978, -0.770882, 0.0, -0.636978, -0.770882, 0.0, 0.636979, 0.770881, 0.0, 0.636979, 0.770881, 0.0, 0.636979, 0.770881, 0.0, -0.234427, 0.972134, 0.0, -0.234427, 0.972134, 0.0, -0.234427, 0.972134, 0.0, 0.0, 0.0, 1.0, 0.0, -1.0, 0.0, 0.0, -1.0, 0.0, 0.0, -1.0, 0.0, 1.0, 0.0, 0.0, 0.170487, 0.98536, 0.0, 0.170487, 0.98536, 0.0, 0.170487, 0.98536, 0.0, 0.749684, 0.661795, 0.0, 0.749684, 0.661795, 0.0, 0.749684, 0.661795, 0.0, 0.0, 0.0, 1.0, -0.990964, -0.13413, 0.0, -0.990964, -0.13413, 0.0, -0.990964, -0.13413, 0.0, 0.0, -1.0, 0.0, -0.190904, 0.981609, 0.0, -0.000378065, 1.0, 0.0, -0.000378065, 1.0, 0.0, -0.000378065, 1.0, 0.0, -0.986037, -0.166524, 0.0, -0.986037, -0.166524, 0.0, -0.986037, -0.166524, 0.0, 0.981965, -0.18906, 0.0, -0.751689, 0.659517, 0.0, -0.751689, 0.659517, 0.0, -0.751689, 0.659517, 0.0, -0.190907, 0.981608, 0.0, -0.190907, 0.981608, 0.0, -0.190907, 0.981608, 0.0, 0.0, -1.0, 0.0, 0.838095, 0.545524, 0.0, 0.838095, 0.545524, 0.0, 0.838095, 0.545524, 0.0, 0.0, 0.0, 1.0, 0.0, -1.0, 0.0, 0.991894, -0.127065, 0.0, 0.991894, -0.127065, 0.0, 0.991894, -0.127065, 0.0, 0.0, -1.0, 0.0, 0.294896, 0.95553, 0.0, 0.294896, 0.95553, 0.0, 0.294896, 0.95553, 0.0, 0.0, 0.0, 1.0, -1.0, 0.0, 0.0, 0.991894, -0.127064, 0.0, 0.838096, 0.545524, 0.0, 0.838096, 0.545524, 0.0, 0.838096, 0.545524, 0.0, 0.0, 0.0, 1.0, 0.0, 0.0, 1.0, 0.0, 0.0, 1.0, -1.0, 0.0, 0.0, -1.0, 0.0, 0.0, -1.0, 0.0, 0.0, 0.991894, -0.127068, 2.37455e-06, 0.991894, -0.127068, 2.37455e-06, 0.991894, -0.127068, 2.37455e-06, 0.0, -1.28499e-06, -1.0, 0.0, -1.28499e-06, -1.0, 0.0, -1.28499e-06, -1.0, 0.775025, 0.631931, 0.0, 0.775025, 0.631931, 0.0, 0.775025, 0.631931, 0.0, 0.0, 0.0, 1.0, 0.0, 0.0, 1.0, 0.0, 0.0, 1.0, -0.751689, 0.659518, 0.0, 0.0, -1.0, 0.0, -0.75169, 0.659517, 0.0, -0.75169, 0.659517, 0.0, -0.75169, 0.659517, 0.0, 0.0, 0.0, 1.0, 0.0, 1.51017e-06, -1.0, 0.0, 1.51017e-06, -1.0, 0.0, 1.51017e-06, -1.0, 0.0, -1.0, 0.0, 0.0, 1.0, 0.0, -0.751689, 0.659517, 0.0, 0.0, 1.0, 0.0, 0.991894, -0.127068, 0.0, 0.838095, 0.545524, 0.0, 0.0, -1.0, 0.0, 0.991894, -0.127064, 0.0, 0.294894, 0.95553, 0.0, 0.294894, 0.95553, 0.0, 0.294894, 0.95553, 0.0, 0.0, -1.0, 0.0, 0.991894, -0.127064, 0.0, 0.838095, 0.545524, 0.0, -0.190904, 0.981609, 0.0, -0.751689, 0.659517, 0.0, 0.981966, -0.18906, 0.0, -0.986037, -0.166524, 0.0, -0.00037807, 1.0, 0.0, -0.00037807, 1.0, 0.0, -0.00037807, 1.0, 0.0, -0.190905, 0.981609, 0.0, -0.990964, -0.13413, 0.0, -0.990964, -0.13413, 0.0, -0.990964, -0.13413, 0.0, 0.749684, 0.661796, 0.0, 0.170487, 0.98536, 0.0, 0.0, -1.0, 0.0, -0.234427, 0.972134, 0.0, -0.234427, 0.972134, 0.0, -0.234427, 0.972134, 0.0, -0.234427, 0.972134, 0.0, -0.234427, 0.972134, 0.0, -0.234427, 0.972134, 0.0, 0.0, -1.0, 0.0, -0.234427, 0.972134, 0.0, -0.234427, 0.972134, 0.0, -0.234427, 0.972134, 0.0, 0.0, -1.0, 0.0, 0.0, -1.0, 0.0, 0.0, -1.0, 0.0, -0.636979, -0.770881, 0.0, -0.636979, -0.770881, 0.0, -0.636979, -0.770881, 0.0, 0.636979, 0.770881, 0.0, 0.636979, 0.770881, 0.0, 0.636979, 0.770881, 0.0, -0.234426, 0.972134, 0.0, -0.234425, 0.972134, 0.0, -0.234425, 0.972134, 0.0, -0.234425, 0.972134, 0.0, 0.0, -1.2372e-06, 1.0, 0.0, -1.2372e-06, 1.0, 0.0, -1.2372e-06, 1.0, -0.636979, -0.770881, 0.0, -0.636979, -0.770881, 0.0, -0.636979, -0.770881, 0.0, 0.636978, 0.770882, 0.0, 0.636978, 0.770882, 0.0, 0.636978, 0.770882, 0.0, -0.234427, 0.972134, 0.0, -0.234427, 0.972134, 0.0, -0.234427, 0.972134, 0.0, 0.0, 0.0, -1.0, 0.0, 0.0, -1.0, 0.0, 0.0, -1.0, 0.0, -1.0, 0.0, 0.0, -1.0, 0.0, 0.0, -1.0, 0.0, 1.0, 0.0, 0.0, 0.170487, 0.98536, 0.0, 0.170487, 0.98536, 0.0, 0.170487, 0.98536, 0.0, 0.749684, 0.661795, 0.0, 0.749684, 0.661795, 0.0, 0.749684, 0.661795, 0.0, -0.990964, -0.13413, 0.0, -0.990964, -0.13413, 0.0, -0.990964, -0.13413, 0.0, 0.0, -1.0, 0.0, 0.0, 0.0, -1.0, 0.0, 0.0, -1.0, 0.0, 0.0, -1.0, -0.190904, 0.981609, 0.0, -0.000378065, 1.0, 0.0, -0.000378065, 1.0, 0.0, -0.000378065, 1.0, 0.0, 0.0, 0.0, -1.0, -0.986037, -0.166524, 0.0, -0.986037, -0.166524, 0.0, -0.986037, -0.166524, 0.0, 0.981965, -0.18906, 0.0, -0.751689, 0.659517, 0.0, -0.751689, 0.659517, 0.0, -0.751689, 0.659517, 0.0, 0.0, 0.0, -1.0, -0.190907, 0.981608, 0.0, -0.190907, 0.981608, 0.0, -0.190907, 0.981608, 0.0, 0.0, -1.0, 0.0, 0.838095, 0.545524, 0.0, 0.838095, 0.545524, 0.0, 0.838095, 0.545524, 0.0, 0.0, 3.35969e-07, -1.0, 0.0, 3.35969e-07, -1.0, 0.0, 3.35969e-07, -1.0, 0.0, -1.0, 0.0, 0.991894, -0.127065, 0.0, 0.991894, -0.127065, 0.0, 0.991894, -0.127065, 0.0, 0.0, -1.0, 0.0, 0.294896, 0.95553, 0.0, 0.294896, 0.95553, 0.0, 0.294896, 0.95553, 0.0, -1.0, 0.0, 0.0, 0.991894, -0.127064, 0.0, 0.838096, 0.545524, 0.0, 0.838096, 0.545524, 0.0, 0.838096, 0.545524, 0.0, 0.0, -3.53238e-07, -1.0, 0.0, -3.53238e-07, -1.0, 0.0, -3.53238e-07, -1.0, -1.0, 0.0, 0.0, -1.0, 0.0, 0.0, -1.0, 0.0, 0.0, 0.991894, -0.127068, -1.3979e-06, 0.991894, -0.127068, -1.3979e-06, 0.991894, -0.127068, -1.3979e-06, 0.0, -1.60624e-06, 1.0, 0.0, -1.60624e-06, 1.0, 0.0, -1.60624e-06, 1.0, 0.775025, 0.631931, 0.0, 0.775025, 0.631931, 0.0, 0.775025, 0.631931, 0.0, 0.0, 0.0, -1.0, -0.751689, 0.659518, 0.0, 0.0, -1.0, 0.0, -0.75169, 0.659517, 0.0, -0.75169, 0.659517, 0.0, -0.75169, 0.659517, 0.0, 0.0, 0.0, -1.0, 0.0, 7.55084e-07, 1.0, 0.0, 7.55084e-07, 1.0, 0.0, 7.55084e-07, 1.0, 0.0, -1.0, 0.0, 0.0, 1.0, 0.0, 0.0, 1.0, 0.0, 0.0, 1.0, 0.0, -0.751689, 0.659517, 0.0, 0.0, 1.0, 0.0, 0.991894, -0.127068, 0.0, 0.838095, 0.545524, 0.0, 0.0, -1.0, 0.0, 0.0, -1.0, 0.0, 0.0, -1.0, 0.0, 0.991894, -0.127064, 0.0, 0.294894, 0.95553, 0.0, 0.294894, 0.95553, 0.0, 0.294894, 0.95553, 0.0, 0.0, -1.0, 0.0, 0.991894, -0.127064, 0.0, 0.838095, 0.545524, 0.0, -0.190904, 0.981609, 0.0, -0.751689, 0.659517, 0.0, 0.981966, -0.18906, 0.0, -0.986037, -0.166524, 0.0, -0.00037807, 1.0, 0.0, -0.00037807, 1.0, 0.0, -0.00037807, 1.0, 0.0, -0.190905, 0.981609, 0.0, -0.990964, -0.13413, 0.0, -0.990964, -0.13413, 0.0, -0.990964, -0.13413, 0.0, 0.749684, 0.661796, 0.0, 0.170487, 0.98536, 0.0, 0.0, -1.0, 0.0, -0.234427, 0.972134, 0.0, -0.234427, 0.972134, 0.0, -0.234427, 0.972134, 0.0, -0.234427, 0.972134, 0.0, -0.234427, 0.972134, 0.0, -0.234427, 0.972134, 0.0, 0.0, -1.0, 0.0, -0.234427, 0.972134, 0.0, -0.234427, 0.972134, 0.0, -0.234427, 0.972134, 0.0, 0.0, -1.0, 0.0, 0.0, -1.0, 0.0, 0.0, -1.0, 0.0, -0.636979, -0.770881, 0.0, -0.636979, -0.770881, 0.0, 0.636979, 0.770881, 0.0, -0.234426, 0.972134, 0.0, -0.234425, 0.972134, 0.0, -0.234425, 0.972134, 0.0, -0.234425, 0.972134, 0.0, 0.0, -1.2372e-06, -1.0, 0.0, -1.2372e-06, -1.0, 0.0, -1.2372e-06, -1.0, 0.0, 0.0, 1.0, 0.0, 0.0, 1.0, 0.0, 0.0, 1.0, -0.636979, -0.770881, 0.0, -0.636979, -0.770881, 0.0, -0.636979, -0.770881, 0.0, 0.636978, 0.770882, 0.0, 0.636978, 0.770882, 0.0, 0.636978, 0.770882, 0.0),
		FloatArray(-0.972134, -0.234427, 0.0, 1.0, -0.972134, -0.234427, 0.0, 1.0, -0.972134, -0.234427, 0.0, 1.0, 0.0, 1.0, 0.0, 1.0, 0.0, 1.0, 0.0, 1.0, -3.38645e-07, 1.0, 0.0, 1.0, 1.0, 0.0, 0.0, 1.0, 1.0, 0.0, 0.0, 1.0, 1.0, 0.0, 0.0, 1.0, 0.0, 1.0, 0.0, 1.0, 0.0, 1.0, 0.0, 1.0, 0.0, 1.0, 0.0, 1.0, 1.0, 0.0, -5.29464e-07, 1.0, 1.0, 0.0, 0.0, 1.0, 1.0, 0.0, 0.0, 1.0, 0.0, 1.0, 0.0, 1.0, 0.0, 1.0, 0.0, 1.0, 0.0, 1.0, 0.0, 1.0, -0.98536, 0.170487, 0.0, 1.0, -0.98536, 0.170487, 0.0, 1.0, -0.98536, 0.170487, 0.0, 1.0, -0.661797, 0.749684, 0.0, 1.0, -0.661797, 0.749683, 0.0, 1.0, -0.661797, 0.749683, 0.0, 1.0, 0.0, 1.0, 0.0, 1.0, 0.0, 1.0, 0.0, 1.0, 0.0, 1.0, 0.0, 1.0, 0.13413, -0.990964, 2.59721e-06, 1.0, 0.13413, -0.990964, 2.59721e-06, 1.0, 0.13413, -0.990964, 2.59721e-06, 1.0, 1.0, 0.0, 0.0, 1.0, 1.0, 0.0, 0.0, 1.0, 1.0, 0.0, 0.0, 1.0, -7.94827e-07, 1.0, 0.0, 1.0, -1.81313e-06, 1.0, 0.0, 1.0, -7.46992e-07, 1.0, 0.0, 1.0, 1.0, 0.0, 0.0, 1.0, 1.0, 0.0, 0.0, 1.0, 1.0, 0.0, 0.0, 1.0, -4.74415e-07, 1.0, 0.0, 1.0, -6.56938e-07, 1.0, 0.0, 1.0, -6.8125e-07, 1.0, 0.0, 1.0, -0.981609, -0.190904, 0.0, 1.0, -0.981609, -0.190904, 0.0, 1.0, -0.981609, -0.190904, 0.0, 1.0, -1.0, -0.000377932, 0.0, 1.0, -1.0, -0.000377932, 0.0, 1.0, -1.0, -0.000377932, 0.0, 1.0, -1.14239e-06, 1.0, 0.0, 1.0, 0.166524, -0.986037, 0.0, 1.0, 0.166524, -0.986037, 0.0, 1.0, 0.166524, -0.986037, 0.0, 1.0, 0.18906, 0.981966, -1.81965e-07, 1.0, 0.18906, 0.981966, -1.07111e-06, 1.0, 0.18906, 0.981966, -1.25307e-06, 1.0, -0.659518, -0.751689, 0.0, 1.0, -0.659518, -0.751689, 0.0, 1.0, -0.659518, -0.751689, 0.0, 1.0, -2.32436e-07, 1.0, 0.0, 1.0, -2.06783e-06, 1.0, 0.0, 1.0, -1.28978e-06, 1.0, 0.0, 1.0, -1.31765e-06, 1.0, 0.0, 1.0, -0.981609, -0.190904, 0.0, 1.0, -0.981609, -0.190904, 0.0, 1.0, -0.981609, -0.190904, 0.0, 1.0, 1.0, 0.0, 0.0, 1.0, 1.0, 0.0, 0.0, 1.0, 1.0, 0.0, 4.36834e-07, 1.0, -0.545523, 0.838096, 0.0, 1.0, -0.545523, 0.838096, 0.0, 1.0, -0.545523, 0.838096, 0.0, 1.0, -2.67549e-05, 1.0, -5.42254e-07, 1.0, -2.67549e-05, 1.0, -5.42254e-07, 1.0, -2.67549e-05, 1.0, -5.42254e-07, 1.0, 1.0, 0.0, 0.0, 1.0, 1.0, 0.0, 0.0, 1.0, 0.0, 1.0, 0.0, 1.0, 0.0, 1.0, 0.0, 1.0, 0.127064, 0.991894, -1.32702e-14, 1.0, 0.127064, 0.991894, -1.32702e-14, 1.0, 0.127064, 0.991894, -1.32702e-14, 1.0, 1.0, 0.0, -1.18823e-06, 1.0, 1.0, 0.0, -9.93541e-07, 1.0, -0.95553, 0.294895, 0.0, 1.0, -0.95553, 0.294895, 0.0, 1.0, -0.95553, 0.294895, 0.0, 1.0, 0.0, 1.0, 0.0, 1.0, 0.0, 1.0, 0.0, 1.0, 0.0, 1.0, 0.0, 1.0, 0.0, 1.0, 0.0, 1.0, 0.0, 1.0, 0.0, 1.0, 0.0, 1.0, 0.0, 1.0, 0.127064, 0.991894, 0.0, 1.0, 0.127064, 0.991894, 0.0, 1.0, 0.127064, 0.991894, 0.0, 1.0, -0.545524, 0.838095, 0.0, 1.0, -0.545524, 0.838095, 0.0, 1.0, -0.545524, 0.838095, 0.0, 1.0, -7.19613e-05, -1.0, -3.70837e-06, 1.0, -7.19613e-05, -1.0, -3.70837e-06, 1.0, -7.19613e-05, -1.0, -3.70837e-06, 1.0, 0.0, 1.0, 0.0, 1.0, 0.0, 1.0, 0.0, 1.0, 0.127068, 0.991894, 0.0, 1.0, 0.127068, 0.991894, 0.0, 1.0, 0.127068, 0.991894, 0.0, 1.0, 1.0, 0.0, 0.0, -1.0, 1.0, 0.0, 0.0, -1.0, 1.0, 0.0, 0.0, -1.0, -0.631932, 0.775024, 0.0, 1.0, -0.631932, 0.775024, 0.0, 1.0, -0.631932, 0.775024, 0.0, 1.0, 3.04046e-06, -1.0, 2.93898e-07, 1.0, 3.04046e-06, -1.0, 2.93898e-07, 1.0, 3.04046e-06, -1.0, 2.93898e-07, 1.0, -1.26811e-06, 1.0, 0.0, 1.0, -1.526e-06, 1.0, 0.0, 1.0, -0.659518, -0.751689, 0.0, 1.0, -0.659518, -0.751689, 0.0, 1.0, -0.659518, -0.751689, 0.0, 1.0, 1.0, 0.0, 3.61052e-07, 1.0, 1.0, 0.0, 0.0, 1.0, 1.0, 0.0, 0.0, 1.0, 1.0, 0.0, 4.33743e-07, 1.0, -0.659517, -0.75169, 0.0, 1.0, -0.659517, -0.75169, 0.0, 1.0, -0.659517, -0.75169, 0.0, 1.0, 0.0258939, 0.999665, 0.0, 1.0, 0.071504, 0.99744, 0.0, 1.0, 1.0, 0.0, 0.0, -1.0, 1.0, 0.0, 0.0, -1.0, 1.0, 0.0, 0.0, -1.0, 1.0, 0.0, 1.52107e-07, 1.0, 1.0, 0.0, 0.0, 1.0, 1.0, 0.0, 0.0, -1.0, 1.0, 0.0, 0.0, -1.0, 1.0, 0.0, 0.0, -1.0, 1.0, 0.0, -7.00708e-06, -1.0, 1.0, 0.0, -7.00708e-06, -1.0, 1.0, 0.0, 0.0, -1.0, 1.0, 0.0, 0.0, 1.0, -0.659517, -0.751689, 0.0, 1.0, -0.659517, -0.751689, 0.0, 1.0, -0.659517, -0.751689, 0.0, 1.0, 1.0, 0.0, 0.0, -1.0, 1.0, 0.0, 0.0, -1.0, 1.0, 0.0, 0.0, -1.0, 0.127068, 0.991894, 0.0, 1.0, 0.127068, 0.991894, 0.0, 1.0, 0.127068, 0.991894, 0.0, 1.0, -0.545524, 0.838096, 0.0, 1.0, -0.545524, 0.838096, 0.0, 1.0, -0.545524, 0.838095, 0.0, 1.0, 1.0, 0.0, 0.0, 1.0, 1.0, 0.0, 0.0, 1.0, 1.0, 0.0, 0.0, -1.0, 0.127064, 0.991894, 0.0, 1.0, 0.127064, 0.991894, 0.0, 1.0, 0.127064, 0.991894, 0.0, 1.0, -0.95553, 0.294896, 0.0, 1.0, -0.95553, 0.294896, 0.0, 1.0, -0.955529, 0.294896, 0.0, 1.0, 1.0, 0.0, 0.0, 1.0, 1.0, 0.0, 0.0, 1.0, 0.127065, 0.991894, 0.0, 1.0, 0.127065, 0.991894, 0.0, 1.0, 0.127064, 0.991894, 0.0, 1.0, 1.0, 0.0, 0.0, 1.0, 1.0, 0.0, 0.0, 1.0, -0.545524, 0.838095, 0.0, 1.0, -0.545524, 0.838095, 0.0, 1.0, -0.545524, 0.838095, 0.0, 1.0, 1.0, 0.0, 0.0, 1.0, -0.981609, -0.190904, 0.0, 1.0, -0.981609, -0.190904, 0.0, 1.0, -0.981609, -0.190904, 0.0, 1.0, -0.659517, -0.751689, 0.0, 1.0, -0.659517, -0.751689, 0.0, 1.0, -0.659517, -0.751689, 0.0, 1.0, 0.18906, 0.981966, -3.20243e-07, 1.0, 0.18906, 0.981966, -9.51905e-07, 1.0, 0.18906, 0.981966, 0.0, 1.0, 0.166524, -0.986037, 0.0, 1.0, 0.166524, -0.986037, 0.0, 1.0, 0.166524, -0.986037, 0.0, 1.0, -1.0, -0.000377865, 0.0, 1.0, -1.0, -0.000377864, 0.0, 1.0, -1.0, -0.000377865, 0.0, 1.0, -0.981609, -0.190904, 0.0, 1.0, -0.981609, -0.190904, 0.0, 1.0, -0.981609, -0.190904, 0.0, 1.0, 1.0, 0.0, 0.0, 1.0, 1.0, 0.0, 0.0, 1.0, 1.0, 0.0, 0.0, 1.0, 1.0, 0.0, 0.0, 1.0, 0.13413, -0.990964, 0.0, 1.0, 0.13413, -0.990964, 0.0, 1.0, 0.13413, -0.990964, 0.0, 1.0, -0.661796, 0.749684, 0.0, 1.0, -0.661796, 0.749684, 0.0, 1.0, -0.661796, 0.749684, 0.0, 1.0, -0.98536, 0.170487, -3.13361e-07, 1.0, -0.98536, 0.170487, -7.45951e-07, 1.0, -0.98536, 0.170487, 0.0, 1.0, 1.0, 0.0, 0.0, 1.0, 0.0, 1.0, 0.0, 1.0, 0.0, 1.0, 0.0, 1.0, 0.0, 1.0, 0.0, 1.0, 1.0, 0.0, 0.0, 1.0, 1.0, 0.0, 0.0, 1.0, 1.0, 0.0, 0.0, 1.0, -0.972134, -0.234427, 0.0, 1.0, -0.972134, -0.234427, 0.0, 1.0, -0.972134, -0.234427, 0.0, 1.0, -0.972134, -0.234427, 0.0, 1.0, -0.972134, -0.234427, 0.0, 1.0, -0.972134, -0.234427, 0.0, 1.0, 1.0, 0.0, 0.0, 1.0, 1.0, 0.0, 0.0, 1.0, 1.0, 0.0, -2.65902e-06, 1.0, 1.0, 0.0, -2.53863e-06, 1.0, 1.0, 0.0, 0.0, 1.0, -1.08998e-06, 1.0, 0.0, 1.0, -7.0226e-07, 1.0, 0.0, 1.0, -0.972134, -0.234427, 0.0, 1.0, -0.972134, -0.234427, 0.0, 1.0, -0.972134, -0.234427, 0.0, 1.0, 1.0, 0.0, 0.0, 1.0, 1.0, 0.0, 0.0, 1.0, 1.0, 0.0, 0.0, 1.0, 1.0, 0.0, 0.0, 1.0, 1.0, 0.0, 0.0, -1.0, 1.0, 0.0, 0.0, -1.0, 1.0, 0.0, 0.0, -1.0, -4.33648e-07, 1.0, 0.0, 1.0, 1.0, 0.0, 0.0, -1.0, 1.0, 0.0, 0.0, -1.0, 1.0, 0.0, 0.0, -1.0, -0.972134, -0.234426, 0.0, 1.0, -0.972134, -0.234426, 0.0, 1.0, -0.972134, -0.234426, 0.0, 1.0, -0.972134, -0.234426, 0.0, 1.0, -0.972134, -0.234426, 0.0, 1.0, -0.972134, -0.234426, 0.0, 1.0, 1.0, 0.0, 0.0, -1.0, 1.0, 0.0, 0.0, -1.0, 1.0, 0.0, 0.0, -1.0, 1.0, 0.0, 0.0, -1.0, 1.0, 0.0, 0.0, -1.0, 1.0, 0.0, 0.0, -1.0, 1.0, 0.0, 0.0, -1.0, 1.0, 0.0, 0.0, -1.0, 1.0, 0.0, 0.0, -1.0, -0.972134, -0.234427, 0.0, -1.0, -0.972134, -0.234427, 0.0, -1.0, -0.972134, -0.234427, 0.0, -1.0, 0.0, 1.0, 0.0, -1.0, 0.0, 1.0, 0.0, -1.0, -3.36779e-07, 1.0, 0.0, -1.0, 1.0, 0.0, 0.0, -1.0, 1.0, 0.0, 0.0, -1.0, 1.0, 0.0, 0.0, -1.0, 0.0, 1.0, 0.0, -1.0, 0.0, 1.0, 0.0, -1.0, 0.0, 1.0, 0.0, -1.0, 1.0, 0.0, 0.0, -1.0, 1.0, 0.0, 5.28726e-07, -1.0, 1.0, 0.0, 0.0, -1.0, 0.0, 1.0, 0.0, -1.0, 0.0, 1.0, 0.0, -1.0, 0.0, 1.0, 0.0, -1.0, -0.98536, 0.170487, 0.0, -1.0, -0.98536, 0.170487, 0.0, -1.0, -0.98536, 0.170487, 0.0, -1.0, -0.661797, 0.749683, 0.0, -1.0, -0.661797, 0.749684, 0.0, -1.0, -0.661797, 0.749683, 0.0, -1.0, 0.0, 1.0, 0.0, -1.0, 0.0, 1.0, 0.0, -1.0, 0.0, 1.0, 0.0, -1.0, 0.13413, -0.990964, -2.59359e-06, -1.0, 0.13413, -0.990964, -2.59359e-06, -1.0, 0.13413, -0.990964, -2.59359e-06, -1.0, 1.0, 0.0, 0.0, -1.0, 1.0, 0.0, 0.0, -1.0, 1.0, 0.0, 0.0, -1.0, -7.41043e-07, 1.0, 0.0, -1.0, -7.45644e-07, 1.0, 0.0, -1.0, -1.12237e-06, 1.0, 0.0, -1.0, 1.0, 0.0, 0.0, -1.0, 1.0, 0.0, 0.0, -1.0, 1.0, 0.0, 0.0, -1.0, 0.0, 1.0, 0.0, -1.0, 0.0, 1.0, 0.0, -1.0, -6.81894e-07, 1.0, 0.0, -1.0, -0.981609, -0.190904, 0.0, -1.0, -0.981609, -0.190904, 0.0, -1.0, -0.981609, -0.190904, 0.0, -1.0, -1.0, -0.000377932, 0.0, -1.0, -1.0, -0.000377932, 0.0, -1.0, -1.0, -0.000377932, 0.0, -1.0, -1.0825e-06, 1.0, 0.0, -1.0, 0.166524, -0.986037, 0.0, -1.0, 0.166524, -0.986037, 0.0, -1.0, 0.166524, -0.986037, 0.0, -1.0, 0.18906, 0.981966, 1.06961e-06, -1.0, 0.18906, 0.981966, 1.81711e-07, -1.0, 0.18906, 0.981966, 1.25132e-06, -1.0, -0.659518, -0.751689, 0.0, -1.0, -0.659518, -0.751689, 0.0, -1.0, -0.659518, -0.751689, 0.0, -1.0, -2.32656e-07, 1.0, 0.0, -1.0, -2.06978e-06, 1.0, 0.0, -1.0, -1.50592e-06, 1.0, 0.0, -1.0, -1.50592e-06, 1.0, 0.0, -1.0, -1.50592e-06, 1.0, 0.0, -1.0, -0.981609, -0.190904, 0.0, -1.0, -0.981609, -0.190904, 0.0, -1.0, -0.981609, -0.190904, 0.0, -1.0, 1.0, 0.0, 0.0, -1.0, 1.0, 0.0, 0.0, -1.0, 1.0, 0.0, -4.33773e-07, -1.0, -0.545523, 0.838096, 0.0, -1.0, -0.545523, 0.838096, 0.0, -1.0, -0.545523, 0.838096, 0.0, -1.0, -2.69553e-05, 1.0, 0.0, -1.0, -6.10097e-07, 1.0, 0.0, -1.0, -2.34938e-05, 1.0, 0.0, -1.0, 1.0, 0.0, 0.0, -1.0, 1.0, 0.0, 0.0, -1.0, 0.0, 1.0, 0.0, -1.0, 0.0, 1.0, 0.0, -1.0, 0.127064, 0.991894, 0.0, -1.0, 0.127064, 0.991894, 0.0, -1.0, 0.127064, 0.991894, 0.0, -1.0, 1.0, 0.0, 9.92338e-07, -1.0, 1.0, 0.0, 1.18916e-06, -1.0, -0.95553, 0.294895, 0.0, -1.0, -0.95553, 0.294895, 0.0, -1.0, -0.95553, 0.294895, 0.0, -1.0, 0.0, 1.0, 0.0, -1.0, 0.0, 1.0, 0.0, -1.0, 0.0, 1.0, 0.0, -1.0, 0.0, 1.0, 0.0, -1.0, 0.127064, 0.991894, 0.0, -1.0, 0.127064, 0.991894, 0.0, -1.0, 0.127064, 0.991894, 0.0, -1.0, -0.545524, 0.838095, 0.0, -1.0, -0.545524, 0.838095, 0.0, -1.0, -0.545524, 0.838095, 0.0, -1.0, -7.16832e-05, -1.0, 7.19197e-06, -1.0, -7.16832e-05, -1.0, 7.19197e-06, -1.0, -7.16832e-05, -1.0, 7.19197e-06, -1.0, 0.0, 1.0, 0.0, -1.0, 0.0, 1.0, 0.0, -1.0, 0.127068, 0.991894, 0.0, -1.0, 0.127068, 0.991894, 0.0, -1.0, 0.127068, 0.991894, 0.0, -1.0, 1.0, 0.0, 0.0, -1.0, 1.0, 0.0, 0.0, -1.0, 1.0, 0.0, 0.0, -1.0, -0.631932, 0.775024, 0.0, -1.0, -0.631932, 0.775024, 0.0, -1.0, -0.631932, 0.775024, 0.0, -1.0, 3.13961e-06, -1.0, 0.0, -1.0, 3.13961e-06, -1.0, 0.0, -1.0, 3.13961e-06, -1.0, 0.0, -1.0, -1.5362e-06, 1.0, 0.0, -1.0, -1.26983e-06, 1.0, 0.0, -1.0, -9.75756e-07, 1.0, 0.0, -1.0, -0.659518, -0.751689, 0.0, -1.0, -0.659518, -0.751689, 0.0, -1.0, -0.659518, -0.751689, 0.0, -1.0, 1.0, 0.0, 0.0, -1.0, 1.0, 0.0, -3.58588e-07, -1.0, 1.0, 0.0, 0.0, -1.0, 1.0, 0.0, -4.33261e-07, -1.0, -0.659517, -0.75169, 0.0, -1.0, -0.659517, -0.75169, 0.0, -1.0, -0.659517, -0.75169, 0.0, -1.0, 0.071504, 0.99744, 0.0, -1.0, 0.0258939, 0.999665, 0.0, -1.0, 1.0, 0.0, 0.0, -1.0, 1.0, 0.0, 0.0, -1.0, 1.0, 0.0, 0.0, -1.0, 1.0, 0.0, -1.49826e-07, -1.0, 1.0, 0.0, 0.0, -1.0, 1.0, 0.0, 0.0, -1.0, 1.0, 0.0, 0.0, -1.0, 1.0, 0.0, 0.0, -1.0, -0.659517, -0.751689, 0.0, -1.0, -0.659517, -0.751689, 0.0, -1.0, -0.659517, -0.751689, 0.0, -1.0, 1.0, 0.0, 0.0, -1.0, 0.127068, 0.991894, 0.0, -1.0, 0.127068, 0.991894, 0.0, -1.0, 0.127068, 0.991894, 0.0, -1.0, -0.545524, 0.838096, 0.0, -1.0, -0.545524, 0.838096, 0.0, -1.0, -0.545524, 0.838095, 0.0, -1.0, 1.0, 0.0, 0.0, -1.0, 0.127064, 0.991894, 0.0, -1.0, 0.127064, 0.991894, 0.0, -1.0, 0.127064, 0.991894, 0.0, -1.0, -0.95553, 0.294896, 0.0, -1.0, -0.95553, 0.294896, 0.0, -1.0, -0.955529, 0.294896, 0.0, -1.0, 1.0, 0.0, 0.0, -1.0, 1.0, 0.0, 0.0, -1.0, 0.127065, 0.991894, 0.0, -1.0, 0.127065, 0.991894, 0.0, -1.0, 0.127064, 0.991894, 0.0, -1.0, 1.0, 0.0, 0.0, -1.0, 1.0, 0.0, 0.0, -1.0, -0.545524, 0.838095, 0.0, -1.0, -0.545524, 0.838095, 0.0, -1.0, -0.545524, 0.838095, 0.0, -1.0, 1.0, 0.0, 0.0, -1.0, -0.981609, -0.190904, 0.0, -1.0, -0.981609, -0.190904, 0.0, -1.0, -0.981609, -0.190904, 0.0, -1.0, -0.659517, -0.751689, 0.0, -1.0, -0.659517, -0.751689, 0.0, -1.0, -0.659517, -0.751689, 0.0, -1.0, 0.18906, 0.981966, 9.37631e-07, -1.0, 0.18906, 0.981966, 3.15441e-07, -1.0, 0.18906, 0.981966, 0.0, -1.0, 0.166524, -0.986037, 0.0, -1.0, 0.166524, -0.986037, 0.0, -1.0, 0.166524, -0.986037, 0.0, -1.0, -1.0, -0.000377864, 0.0, -1.0, -1.0, -0.000377865, 0.0, -1.0, -1.0, -0.000377865, 0.0, -1.0, -0.981609, -0.190904, 0.0, -1.0, -0.981609, -0.190904, 0.0, -1.0, -0.981609, -0.190904, 0.0, -1.0, 1.0, 0.0, 0.0, -1.0, 1.0, 0.0, 0.0, -1.0, 1.0, 0.0, 0.0, -1.0, 1.0, 0.0, 0.0, -1.0, 0.13413, -0.990964, 0.0, -1.0, 0.13413, -0.990964, 0.0, -1.0, 0.13413, -0.990964, 0.0, -1.0, -0.661796, 0.749684, 0.0, -1.0, -0.661796, 0.749684, 0.0, -1.0, -0.661796, 0.749684, 0.0, -1.0, -0.98536, 0.170487, 7.34765e-07, -1.0, -0.98536, 0.170487, 3.08662e-07, -1.0, -0.98536, 0.170487, 0.0, -1.0, 1.0, 0.0, 0.0, -1.0, 0.0, 1.0, 0.0, -1.0, 0.0, 1.0, 0.0, -1.0, 0.0, 1.0, 0.0, -1.0, 1.0, 0.0, 0.0, -1.0, 1.0, 0.0, 0.0, -1.0, 1.0, 0.0, 0.0, -1.0, -0.972134, -0.234427, 0.0, -1.0, -0.972134, -0.234427, 0.0, -1.0, -0.972134, -0.234427, 0.0, -1.0, -0.972134, -0.234427, 0.0, -1.0, -0.972134, -0.234427, 0.0, -1.0, -0.972134, -0.234427, 0.0, -1.0, 1.0, 0.0, 0.0, -1.0, 1.0, 0.0, 0.0, -1.0, 1.0, 0.0, 2.54218e-06, -1.0, 1.0, 0.0, 2.66274e-06, -1.0, 1.0, 0.0, 0.0, -1.0, -6.95747e-07, 1.0, 0.0, -1.0, -7.09261e-07, 1.0, 0.0, -1.0, -6.52657e-07, 1.0, 0.0, -1.0, -0.972134, -0.234427, 0.0, -1.0, -0.972134, -0.234427, 0.0, -1.0, -0.972134, -0.234427, 0.0, -1.0, 1.0, 0.0, 0.0, -1.0, 1.0, 0.0, 0.0, -1.0, 1.0, 0.0, 0.0, -1.0, 1.0, 0.0, 0.0, -1.0, 1.0, 0.0, 0.0, -1.0, -4.43428e-07, 1.0, 0.0, -1.0, 1.0, 0.0, 0.0, -1.0, 1.0, 0.0, 0.0, -1.0, -0.972134, -0.234426, 0.0, -1.0, -0.972134, -0.234426, 0.0, -1.0, -0.972134, -0.234426, 0.0, -1.0, -0.972134, -0.234426, 0.0, -1.0, -0.972134, -0.234426, 0.0, -1.0, -0.972134, -0.234426, 0.0, -1.0, 1.0, 0.0, 0.0, -1.0, 1.0, 0.0, 0.0, -1.0, 1.0, 0.0, 0.0, -1.0, 1.0, 0.0, 0.0, -1.0, 1.0, 0.0, 0.0, -1.0, 1.0, 0.0, 0.0, -1.0, 1.0, 0.0, 0.0, -1.0, 1.0, 0.0, 0.0, -1.0, 1.0, 0.0, 0.0, -1.0, 1.0, 0.0, 0.0, -1.0, 1.0, 0.0, 0.0, -1.0, 1.0, 0.0, 0.0, -1.0, -0.972134, -0.234427, 0.0, 1.0, -0.972134, -0.234427, 0.0, 1.0, -0.972134, -0.234427, 0.0, 1.0, 0.0, 1.0, 0.0, 1.0, 1.0, 0.0, 0.0, 1.0, 1.0, 0.0, 0.0, 1.0, 1.0, 0.0, 0.0, 1.0, 0.0, 1.0, 0.0, 1.0, -0.98536, 0.170487, 0.0, 1.0, -0.98536, 0.170487, 0.0, 1.0, -0.98536, 0.170487, 0.0, 1.0, -0.661795, 0.749684, 0.0, 1.0, -0.661795, 0.749685, 0.0, 1.0, -0.661795, 0.749685, 0.0, 1.0, 0.0, 1.0, 0.0, 1.0, 0.13413, -0.990964, 1.29679e-06, 1.0, 0.13413, -0.990964, 1.29679e-06, 1.0, 0.13413, -0.990964, 1.29679e-06, 1.0, 1.0, 0.0, 0.0, 1.0, -0.981609, -0.190904, 0.0, 1.0, -1.0, -0.000378065, 0.0, 1.0, -1.0, -0.000378065, 0.0, 1.0, -1.0, -0.000378065, 0.0, 1.0, 0.166524, -0.986037, 0.0, 1.0, 0.166524, -0.986037, 0.0, 1.0, 0.166524, -0.986037, 0.0, 1.0, 0.18906, 0.981966, 0.0, 1.0, -0.659517, -0.751689, 0.0, 1.0, -0.659517, -0.751689, 0.0, 1.0, -0.659517, -0.751689, 0.0, 1.0, -0.981608, -0.190907, 0.0, 1.0, -0.981608, -0.190907, 0.0, 1.0, -0.981608, -0.190907, 0.0, 1.0, 1.0, 0.0, 0.0, 1.0, -0.545524, 0.838095, 0.0, 1.0, -0.545524, 0.838095, 0.0, 1.0, -0.545524, 0.838095, 0.0, 1.0, -5.08111e-06, 1.0, 0.0, 1.0, 1.0, 0.0, 0.0, 1.0, 0.127065, 0.991894, 0.0, 1.0, 0.127065, 0.991894, 0.0, 1.0, 0.127065, 0.991894, 0.0, 1.0, 1.0, 0.0, -1.05746e-06, 1.0, -0.955529, 0.294895, 0.0, 1.0, -0.955529, 0.294896, 0.0, 1.0, -0.95553, 0.294896, 0.0, 1.0, 0.0, 1.0, 0.0, 1.0, 0.0, 1.0, 0.0, 1.0, 0.127064, 0.991894, 0.0, 1.0, -0.545524, 0.838095, 0.0, 1.0, -0.545524, 0.838096, 0.0, 1.0, -0.545524, 0.838095, 0.0, 1.0, -1.27106e-06, 1.0, 0.0, 1.0, -1.27106e-06, 1.0, 0.0, 1.0, -1.27106e-06, 1.0, 0.0, 1.0, 0.0, 1.0, 0.0, 1.0, 0.0, 1.0, 0.0, 1.0, 0.0, 1.0, 0.0, 1.0, 0.127068, 0.991894, 0.0, 1.0, 0.127068, 0.991894, 0.0, 1.0, 0.127068, 0.991894, 0.0, 1.0, 1.0, 0.0, 0.0, -1.0, 1.0, 0.0, 0.0, -1.0, 1.0, 0.0, 0.0, -1.0, -0.631931, 0.775025, 5.62609e-07, 1.0, -0.631931, 0.775025, 5.62609e-07, 1.0, -0.631931, 0.775025, 5.62609e-07, 1.0, -3.44035e-07, 1.0, 0.0, 1.0, -3.44035e-07, 1.0, 0.0, 1.0, -3.44035e-07, 1.0, 0.0, 1.0, -0.659518, -0.751689, 0.0, 1.0, 1.0, 0.0, 8.66399e-07, 1.0, -0.659517, -0.75169, 0.0, 1.0, -0.659517, -0.75169, 0.0, 1.0, -0.659517, -0.75169, 0.0, 1.0, 0.267455, 0.96357, 0.0, 1.0, -0.659517, -0.75169, -1.13518e-06, -1.0, -0.659517, -0.75169, -1.13518e-06, -1.0, -0.659517, -0.75169, -1.13518e-06, -1.0, 1.0, 0.0, 0.0, -1.0, 1.0, 0.0, -7.00708e-06, -1.0, -0.659517, -0.751689, 0.0, 1.0, 1.0, 0.0, 0.0, -1.0, 0.127068, 0.991894, 0.0, 1.0, -0.545524, 0.838095, 0.0, 1.0, 1.0, 0.0, 0.0, 1.0, 0.127064, 0.991894, 0.0, 1.0, -0.95553, 0.294894, 9.39196e-06, 1.0, -0.95553, 0.294894, 9.39196e-06, 1.0, -0.95553, 0.294894, 9.39196e-06, 1.0, 1.0, 0.0, 0.0, 1.0, 0.127064, 0.991894, 0.0, 1.0, -0.545524, 0.838095, 0.0, 1.0, -0.981609, -0.190904, 0.0, 1.0, -0.659517, -0.751689, 0.0, 1.0, 0.18906, 0.981966, -1.27215e-06, 1.0, 0.166524, -0.986037, 0.0, 1.0, -1.0, -0.00037807, 0.0, 1.0, -1.0, -0.00037807, 0.0, 1.0, -1.0, -0.00037807, 0.0, 1.0, -0.981609, -0.190904, 0.0, 1.0, 0.13413, -0.990964, 0.0, 1.0, 0.13413, -0.990964, 0.0, 1.0, 0.13413, -0.990964, 0.0, 1.0, -0.661796, 0.749684, 0.0, 1.0, -0.98536, 0.170487, -1.05931e-06, 1.0, 1.0, 0.0, 0.0, 1.0, -0.972134, -0.234427, 0.0, 1.0, -0.972134, -0.234427, 0.0, 1.0, -0.972134, -0.234427, 0.0, 1.0, -0.972134, -0.234427, 0.0, 1.0, -0.972134, -0.234427, 0.0, 1.0, -0.972134, -0.234427, 0.0, 1.0, 1.0, 0.0, -5.19766e-06, 1.0, -0.972134, -0.234427, -1.50242e-06, 1.0, -0.972134, -0.234427, -1.50242e-06, 1.0, -0.972134, -0.234427, -1.50242e-06, 1.0, 1.0, 0.0, 1.42747e-06, 1.0, 1.0, 0.0, 1.42747e-06, 1.0, 1.0, 0.0, 1.42747e-06, 1.0, 1.0, 0.0, 0.0, -1.0, 1.0, 0.0, 0.0, -1.0, 1.0, 0.0, 0.0, -1.0, 1.0, 0.0, 0.0, -1.0, 1.0, 0.0, 0.0, -1.0, 1.0, 0.0, 0.0, -1.0, -0.972134, -0.234426, 0.0, 1.0, -0.972134, -0.234425, 5.05282e-06, 1.0, -0.972134, -0.234425, 5.05282e-06, 1.0, -0.972134, -0.234425, 5.05282e-06, 1.0, 1.0, 0.0, 0.0, -1.0, 1.0, 0.0, 0.0, -1.0, 1.0, 0.0, 0.0, -1.0, 1.0, 0.0, 0.0, -1.0, 1.0, 0.0, 0.0, -1.0, 1.0, 0.0, 0.0, -1.0, 1.0, 0.0, 0.0, -1.0, 1.0, 0.0, 0.0, -1.0, 1.0, 0.0, 0.0, -1.0, -0.972134, -0.234427, 0.0, -1.0, -0.972134, -0.234427, 0.0, -1.0, -0.972134, -0.234427, 0.0, -1.0, 0.0, 1.0, 0.0, -1.0, 0.0, 1.0, 0.0, -1.0, 0.0, 1.0, 0.0, -1.0, 1.0, 0.0, 0.0, -1.0, 1.0, 0.0, 0.0, -1.0, 1.0, 0.0, 0.0, -1.0, 0.0, 1.0, 0.0, -1.0, -0.98536, 0.170487, 0.0, -1.0, -0.98536, 0.170487, 0.0, -1.0, -0.98536, 0.170487, 0.0, -1.0, -0.661795, 0.749685, 0.0, -1.0, -0.661795, 0.749685, 0.0, -1.0, -0.661795, 0.749684, 0.0, -1.0, 0.13413, -0.990964, -1.2986e-06, -1.0, 0.13413, -0.990964, -1.2986e-06, -1.0, 0.13413, -0.990964, -1.2986e-06, -1.0, 1.0, 0.0, 0.0, -1.0, -1.38503e-06, 1.0, 0.0, -1.0, -1.38503e-06, 1.0, 0.0, -1.0, -1.38503e-06, 1.0, 0.0, -1.0, -0.981609, -0.190904, 0.0, -1.0, -1.0, -0.000378065, 0.0, -1.0, -1.0, -0.000378065, 0.0, -1.0, -1.0, -0.000378065, 0.0, -1.0, -1.50635e-06, 1.0, 0.0, -1.0, 0.166524, -0.986037, 0.0, -1.0, 0.166524, -0.986037, 0.0, -1.0, 0.166524, -0.986037, 0.0, -1.0, 0.18906, 0.981966, 0.0, -1.0, -0.659517, -0.751689, 0.0, -1.0, -0.659517, -0.751689, 0.0, -1.0, -0.659517, -0.751689, 0.0, -1.0, -9.76625e-07, 1.0, 0.0, -1.0, -0.981608, -0.190907, 0.0, -1.0, -0.981608, -0.190907, 0.0, -1.0, -0.981608, -0.190907, 0.0, -1.0, 1.0, 0.0, 0.0, -1.0, -0.545524, 0.838095, 0.0, -1.0, -0.545524, 0.838095, 0.0, -1.0, -0.545524, 0.838095, 0.0, -1.0, -5.13778e-06, 1.0, 3.35969e-07, -1.0, -5.13778e-06, 1.0, 3.35969e-07, -1.0, -5.13778e-06, 1.0, 3.35969e-07, -1.0, 1.0, 0.0, 0.0, -1.0, 0.127065, 0.991894, 0.0, -1.0, 0.127065, 0.991894, 0.0, -1.0, 0.127065, 0.991894, 0.0, -1.0, 1.0, 0.0, 1.05893e-06, -1.0, -0.95553, 0.294896, 0.0, -1.0, -0.955529, 0.294896, 0.0, -1.0, -0.955529, 0.294895, 0.0, -1.0, 0.0, 1.0, 0.0, -1.0, 0.127064, 0.991894, 0.0, -1.0, -0.545524, 0.838095, 0.0, -1.0, -0.545524, 0.838096, 0.0, -1.0, -0.545524, 0.838095, 0.0, -1.0, -1.27106e-06, 1.0, -3.53238e-07, -1.0, -1.27106e-06, 1.0, -3.53238e-07, -1.0, -1.27106e-06, 1.0, -3.53238e-07, -1.0, 0.0, 1.0, 0.0, -1.0, 0.0, 1.0, 0.0, -1.0, 0.0, 1.0, 0.0, -1.0, 0.127068, 0.991894, -2.08303e-14, -1.0, 0.127068, 0.991894, -2.08303e-14, -1.0, 0.127068, 0.991894, -2.08303e-14, -1.0, 1.0, 0.0, 0.0, -1.0, 1.0, 0.0, 0.0, -1.0, 1.0, 0.0, 0.0, -1.0, -0.631931, 0.775025, -5.63394e-07, -1.0, -0.631931, 0.775025, -5.63394e-07, -1.0, -0.631931, 0.775025, -5.63394e-07, -1.0, -3.44035e-07, 1.0, 0.0, -1.0, -0.659518, -0.751689, 0.0, -1.0, 1.0, 0.0, -8.67608e-07, -1.0, -0.659517, -0.75169, 0.0, -1.0, -0.659517, -0.75169, 0.0, -1.0, -0.659517, -0.75169, 0.0, -1.0, 0.267455, 0.96357, 0.0, -1.0, -0.659517, -0.75169, 5.67589e-07, 1.0, -0.659517, -0.75169, 5.67589e-07, 1.0, -0.659517, -0.75169, 5.67589e-07, 1.0, 1.0, 0.0, 0.0, -1.0, 1.0, 0.0, 6.902e-06, 1.0, 1.0, 0.0, 6.902e-06, 1.0, 1.0, 0.0, 6.902e-06, 1.0, -0.659517, -0.751689, 0.0, -1.0, 1.0, 0.0, 0.0, -1.0, 0.127068, 0.991894, 0.0, -1.0, -0.545524, 0.838095, 0.0, -1.0, 1.0, 0.0, 0.0, -1.0, 1.0, 0.0, 0.0, -1.0, 1.0, 0.0, 0.0, -1.0, 0.127064, 0.991894, 0.0, -1.0, -0.95553, 0.294894, -9.25112e-06, -1.0, -0.95553, 0.294894, -9.25112e-06, -1.0, -0.95553, 0.294894, -9.25112e-06, -1.0, 1.0, 0.0, 0.0, -1.0, 0.127064, 0.991894, 0.0, -1.0, -0.545524, 0.838095, 0.0, -1.0, -0.981609, -0.190904, 0.0, -1.0, -0.659517, -0.751689, 0.0, -1.0, 0.18906, 0.981966, 1.25307e-06, -1.0, 0.166524, -0.986037, 0.0, -1.0, -1.0, -0.00037807, 0.0, -1.0, -1.0, -0.00037807, 0.0, -1.0, -1.0, -0.00037807, 0.0, -1.0, -0.981609, -0.190904, 0.0, -1.0, 0.13413, -0.990964, 0.0, -1.0, 0.13413, -0.990964, 0.0, -1.0, 0.13413, -0.990964, 0.0, -1.0, -0.661796, 0.749684, 0.0, -1.0, -0.98536, 0.170487, 1.04343e-06, -1.0, 1.0, 0.0, 0.0, -1.0, -0.972134, -0.234427, 0.0, -1.0, -0.972134, -0.234427, 0.0, -1.0, -0.972134, -0.234427, 0.0, -1.0, -0.972134, -0.234427, 0.0, -1.0, -0.972134, -0.234427, 0.0, -1.0, -0.972134, -0.234427, 0.0, -1.0, 1.0, 0.0, 5.20491e-06, -1.0, -0.972134, -0.234427, 1.50452e-06, -1.0, -0.972134, -0.234427, 1.50452e-06, -1.0, -0.972134, -0.234427, 1.50452e-06, -1.0, 1.0, 0.0, -1.42947e-06, -1.0, 1.0, 0.0, -1.42947e-06, -1.0, 1.0, 0.0, -1.42947e-06, -1.0, 1.0, 0.0, 0.0, -1.0, 1.0, 0.0, 0.0, -1.0, 1.0, 0.0, 0.0, -1.0, -0.972134, -0.234426, 0.0, -1.0, -0.972134, -0.234425, -5.05987e-06, -1.0, -0.972134, -0.234425, -5.05987e-06, -1.0, -0.972134, -0.234425, -5.05987e-06, -1.0, 1.0, 0.0, 0.0, -1.0, 1.0, 0.0, 0.0, -1.0, 1.0, 0.0, 0.0, -1.0, 1.0, 0.0, 0.0, -1.0, 1.0, 0.0, 0.0, -1.0, 1.0, 0.0, 0.0, -1.0, 1.0, 0.0, 0.0, -1.0, 1.0, 0.0, 0.0, -1.0, 1.0, 0.0, 0.0, -1.0, 1.0, 0.0, 0.0, -1.0, 1.0, 0.0, 0.0, -1.0, 1.0, 0.0, 0.0, -1.0),
		null, ; no Vertex Colors,
		Vector2Array(0.875, 0.261042, 0.842575, 0.25, 0.842575, 0.261042, 0.625, 0.0324253, 0.375, 0.0, 0.375, 0.0324253, 0.375, 0.261042, 0.351562, 0.25, 0.351562, 0.261042, 0.625, 0.261042, 0.375, 0.25, 0.375, 0.261042, 0.328125, 0.261042, 0.317863, 0.25, 0.317863, 0.261042, 0.625, 0.224252, 0.375, 0.203125, 0.375, 0.224252, 0.671875, 0.261042, 0.650748, 0.25, 0.650748, 0.261042, 0.648438, 0.261042, 0.625, 0.25, 0.625, 0.261042, 0.625, 0.25, 0.375, 0.226562, 0.375, 0.25, 0.351562, 0.261042, 0.349252, 0.25, 0.349252, 0.261042, 0.298579, 0.261042, 0.23321, 0.25, 0.23321, 0.261042, 0.375, 0.190676, 0.625, 0.173579, 0.375, 0.173579, 0.196279, 0.261042, 0.16633, 0.25, 0.16633, 0.261042, 0.625, 0.0746546, 0.375, 0.0712792, 0.375, 0.0746546, 0.803721, 0.261042, 0.800345, 0.25, 0.800345, 0.261042, 0.76679, 0.261042, 0.701421, 0.25, 0.701421, 0.261042, 0.375, 0.10821, 0.23321, 0.261042, 0.230249, 0.25, 0.230249, 0.261042, 0.199655, 0.261042, 0.196279, 0.25, 0.196279, 0.261042, 0.800345, 0.261042, 0.798007, 0.25, 0.798007, 0.261042, 0.625, 0.0769932, 0.375, 0.0769932, 0.625, 0.10821, 0.375, 0.105249, 0.769751, 0.261042, 0.76679, 0.25, 0.76679, 0.261042, 0.230249, 0.261042, 0.227779, 0.25, 0.227779, 0.261042, 0.701421, 0.261042, 0.699397, 0.25, 0.699397, 0.261042, 0.625, 0.175603, 0.375, 0.190676, 0.375, 0.190826, 0.315676, 0.261042, 0.298579, 0.25, 0.625, 0.203125, 0.375, 0.192863, 0.317863, 0.261042, 0.317683, 0.25, 0.317683, 0.261042, 0.349252, 0.261042, 0.328125, 0.25, 0.650748, 0.261042, 0.648438, 0.25, 0.648438, 0.261042, 0.625, 0.226562, 0.375, 0.224252, 0.375, 0.226562, 0.625, 0.988958, 0.375, 0.875, 0.375, 0.988958, 0.315826, 0.261042, 0.315676, 0.25, 0.315676, 0.261042, 0.674304, 0.261042, 0.671875, 0.25, 0.671875, 0.261042, 0.625, 0.203125, 0.375, 0.192683, 0.375, 0.192863, 0.625, 1.0, 0.375, 1.0, 0.317683, 0.261042, 0.315826, 0.25, 0.315826, 0.261042, 0.699397, 0.261042, 0.674304, 0.261042, 0.674304, 0.261042, 0.699397, 0.261042, 0.674304, 0.25, 0.674304, 0.261042, 0.625, 0.200696, 0.375, 0.190826, 0.375, 0.192683, 0.625, 0.105249, 0.375, 0.102779, 0.772221, 0.261042, 0.769751, 0.25, 0.769751, 0.261042, 0.201993, 0.261042, 0.199655, 0.25, 0.199655, 0.261042, 0.201993, 0.25, 0.798007, 0.261042, 0.772221, 0.25, 0.772221, 0.261042, 0.625, 0.102779, 0.388001, 0.0769931, 0.798007, 0.261042, 0.772221, 0.261042, 0.772221, 0.261042, 0.227779, 0.375, 0.201993, 0.375, 0.772221, 0.375, 0.772221, 0.261042, 0.772221, 0.375, 0.798007, 0.375, 0.798007, 0.261042, 0.798007, 0.375, 0.199655, 0.375, 0.772221, 0.375, 0.769751, 0.261042, 0.769751, 0.375, 0.674304, 0.375, 0.674304, 0.261042, 0.674304, 0.375, 0.317683, 0.375, 0.315826, 0.261042, 0.315826, 0.375, 0.674304, 0.375, 0.671875, 0.261042, 0.671875, 0.375, 0.699397, 0.375, 0.699397, 0.261042, 0.699397, 0.375, 0.315826, 0.375, 0.315676, 0.261042, 0.315676, 0.375, 0.650748, 0.375, 0.648438, 0.261042, 0.648438, 0.375, 0.349252, 0.375, 0.328125, 0.375, 0.317863, 0.375, 0.317683, 0.261042, 0.317683, 0.375, 0.315676, 0.375, 0.298579, 0.375, 0.701421, 0.375, 0.699397, 0.261042, 0.699397, 0.375, 0.230249, 0.375, 0.769751, 0.375, 0.76679, 0.261042, 0.76679, 0.375, 0.800345, 0.375, 0.798007, 0.261042, 0.798007, 0.375, 0.199655, 0.375, 0.196279, 0.261042, 0.196279, 0.375, 0.23321, 0.375, 0.230249, 0.261042, 0.230249, 0.375, 0.76679, 0.375, 0.701421, 0.261042, 0.701421, 0.375, 0.803721, 0.375, 0.800345, 0.261042, 0.800345, 0.375, 0.196279, 0.375, 0.16633, 0.375, 0.23321, 0.261042, 0.23321, 0.375, 0.351562, 0.375, 0.349252, 0.261042, 0.349252, 0.375, 0.648438, 0.375, 0.625, 0.261042, 0.625, 0.375, 0.671875, 0.375, 0.650748, 0.261042, 0.650748, 0.375, 0.317863, 0.375, 0.625, 0.375, 0.375, 0.261042, 0.375, 0.375, 0.375, 0.375, 0.351562, 0.261042, 0.351562, 0.375, 0.875, 0.375, 0.842575, 0.261042, 0.842575, 0.375, 0.83367, 0.375, 0.803721, 0.261042, 0.803721, 0.375, 0.157425, 0.261042, 0.157425, 0.375, 0.16633, 0.261042, 0.157425, 0.25, 0.157425, 0.261042, 0.625, 0.0712793, 0.375, 0.0413304, 0.83367, 0.261042, 0.803721, 0.25, 0.803721, 0.261042, 0.125, 0.25, 0.125, 0.261042, 0.125, 0.261042, 0.125, 0.375, 0.842575, 0.261042, 0.842575, 0.375, 0.842575, 0.375, 0.625, 0.0413305, 0.83367, 0.375, 0.83367, 0.261042, 0.83367, 0.261042, 0.842575, 0.375, 0.83367, 0.261042, 0.83367, 0.375, 0.842575, 0.261042, 0.83367, 0.25, 0.83367, 0.261042, 0.625, 0.0413305, 0.625, 0.0324253, 0.625, 0.0324253, 0.842575, 0.25, 0.842575, 0.261042, 0.842575, 0.261042, 0.83367, 0.261042, 0.83367, 0.25, 0.83367, 0.25, 0.842575, 0.25, 0.875, 0.261042, 0.842575, 0.261042, 0.375, 0.0, 0.625, 0.0324253, 0.375, 0.0324253, 0.351562, 0.25, 0.375, 0.261042, 0.351562, 0.261042, 0.375, 0.25, 0.625, 0.261042, 0.375, 0.261042, 0.317863, 0.25, 0.328125, 0.261042, 0.317863, 0.261042, 0.375, 0.203125, 0.625, 0.224252, 0.375, 0.224252, 0.650748, 0.25, 0.671875, 0.261042, 0.650748, 0.261042, 0.625, 0.25, 0.648438, 0.261042, 0.625, 0.261042, 0.375, 0.226562, 0.625, 0.25, 0.375, 0.25, 0.349252, 0.25, 0.351562, 0.261042, 0.349252, 0.261042, 0.23321, 0.25, 0.298579, 0.261042, 0.23321, 0.261042, 0.375, 0.190676, 0.375, 0.173579, 0.625, 0.173579, 0.16633, 0.25, 0.196279, 0.261042, 0.16633, 0.261042, 0.375, 0.0712792, 0.625, 0.0746546, 0.375, 0.0746546, 0.800345, 0.25, 0.803721, 0.261042, 0.800345, 0.261042, 0.701421, 0.25, 0.76679, 0.261042, 0.701421, 0.261042, 0.375, 0.10821, 0.230249, 0.25, 0.23321, 0.261042, 0.230249, 0.261042, 0.196279, 0.25, 0.199655, 0.261042, 0.196279, 0.261042, 0.798007, 0.25, 0.800345, 0.261042, 0.798007, 0.261042, 0.625, 0.0769932, 0.375, 0.0769932, 0.375, 0.105249, 0.625, 0.10821, 0.375, 0.10821, 0.76679, 0.25, 0.769751, 0.261042, 0.76679, 0.261042, 0.227779, 0.25, 0.230249, 0.261042, 0.227779, 0.261042, 0.699397, 0.25, 0.701421, 0.261042, 0.699397, 0.261042, 0.375, 0.190676, 0.625, 0.175603, 0.375, 0.190826, 0.298579, 0.25, 0.315676, 0.261042, 0.375, 0.192863, 0.625, 0.203125, 0.317683, 0.25, 0.317863, 0.261042, 0.317683, 0.261042, 0.328125, 0.25, 0.349252, 0.261042, 0.648438, 0.25, 0.650748, 0.261042, 0.648438, 0.261042, 0.625, 0.226562, 0.375, 0.875, 0.625, 0.988958, 0.375, 0.988958, 0.315676, 0.25, 0.315826, 0.261042, 0.315676, 0.261042, 0.671875, 0.25, 0.674304, 0.261042, 0.671875, 0.261042, 0.375, 0.192683, 0.625, 0.203125, 0.375, 0.192863, 0.625, 1.0, 0.375, 1.0, 0.315826, 0.25, 0.317683, 0.261042, 0.315826, 0.261042, 0.674304, 0.261042, 0.699397, 0.261042, 0.674304, 0.261042, 0.674304, 0.25, 0.699397, 0.261042, 0.674304, 0.261042, 0.375, 0.190826, 0.625, 0.200696, 0.375, 0.192683, 0.375, 0.102779, 0.625, 0.105249, 0.375, 0.105249, 0.769751, 0.25, 0.772221, 0.261042, 0.769751, 0.261042, 0.199655, 0.25, 0.201993, 0.261042, 0.199655, 0.261042, 0.201993, 0.25, 0.772221, 0.25, 0.798007, 0.261042, 0.772221, 0.261042, 0.388001, 0.0769931, 0.625, 0.102779, 0.772221, 0.261042, 0.798007, 0.261042, 0.772221, 0.261042, 0.227779, 0.375, 0.201993, 0.375, 0.772221, 0.261042, 0.798007, 0.261042, 0.199655, 0.375, 0.769751, 0.261042, 0.772221, 0.375, 0.769751, 0.375, 0.674304, 0.261042, 0.315826, 0.261042, 0.317683, 0.375, 0.315826, 0.375, 0.671875, 0.261042, 0.674304, 0.375, 0.671875, 0.375, 0.699397, 0.261042, 0.315676, 0.261042, 0.315826, 0.375, 0.315676, 0.375, 0.648438, 0.261042, 0.650748, 0.375, 0.648438, 0.375, 0.349252, 0.375, 0.328125, 0.375, 0.317683, 0.261042, 0.317863, 0.375, 0.317683, 0.375, 0.315676, 0.375, 0.298579, 0.375, 0.699397, 0.261042, 0.701421, 0.375, 0.699397, 0.375, 0.230249, 0.375, 0.76679, 0.261042, 0.769751, 0.375, 0.76679, 0.375, 0.798007, 0.261042, 0.800345, 0.375, 0.798007, 0.375, 0.196279, 0.261042, 0.199655, 0.375, 0.196279, 0.375, 0.230249, 0.261042, 0.23321, 0.375, 0.230249, 0.375, 0.701421, 0.261042, 0.76679, 0.375, 0.701421, 0.375, 0.800345, 0.261042, 0.803721, 0.375, 0.800345, 0.375, 0.196279, 0.375, 0.16633, 0.375, 0.23321, 0.261042, 0.23321, 0.375, 0.349252, 0.261042, 0.351562, 0.375, 0.349252, 0.375, 0.625, 0.261042, 0.648438, 0.375, 0.625, 0.375, 0.650748, 0.261042, 0.671875, 0.375, 0.650748, 0.375, 0.317863, 0.375, 0.375, 0.261042, 0.625, 0.375, 0.375, 0.375, 0.351562, 0.261042, 0.375, 0.375, 0.351562, 0.375, 0.842575, 0.261042, 0.875, 0.375, 0.842575, 0.375, 0.803721, 0.261042, 0.83367, 0.375, 0.803721, 0.375, 0.157425, 0.261042, 0.157425, 0.375, 0.157425, 0.25, 0.16633, 0.261042, 0.157425, 0.261042, 0.375, 0.0413304, 0.625, 0.0712793, 0.375, 0.0712792, 0.803721, 0.25, 0.83367, 0.261042, 0.803721, 0.261042, 0.125, 0.25, 0.125, 0.261042, 0.125, 0.261042, 0.125, 0.375, 0.842575, 0.261042, 0.625, 0.0413305, 0.83367, 0.261042, 0.83367, 0.261042, 0.83367, 0.261042, 0.842575, 0.375, 0.83367, 0.375, 0.83367, 0.25, 0.842575, 0.261042, 0.83367, 0.261042, 0.625, 0.0324253, 0.625, 0.0413305, 0.625, 0.0324253, 0.0, 1.0, 0.0, 1.0, 0.0, 1.0, 0.842575, 0.261042, 0.842575, 0.25, 0.842575, 0.261042, 0.83367, 0.25, 0.83367, 0.261042, 0.83367, 0.25, 0.875, 0.261042, 0.875, 0.25, 0.842575, 0.25, 0.625, 0.0, 0.375, 0.261042, 0.375, 0.25, 0.351562, 0.25, 0.625, 0.25, 0.671875, 0.261042, 0.671875, 0.25, 0.650748, 0.25, 0.648438, 0.261042, 0.648438, 0.25, 0.625, 0.25, 0.625, 0.226562, 0.351562, 0.261042, 0.351562, 0.25, 0.349252, 0.25, 0.196279, 0.25, 0.803721, 0.25, 0.76679, 0.261042, 0.76679, 0.25, 0.701421, 0.25, 0.23321, 0.261042, 0.23321, 0.25, 0.230249, 0.25, 0.199655, 0.25, 0.800345, 0.261042, 0.800345, 0.25, 0.798007, 0.25, 0.769751, 0.261042, 0.769751, 0.25, 0.76679, 0.25, 0.230249, 0.25, 0.701421, 0.261042, 0.701421, 0.25, 0.699397, 0.25, 0.625, 0.175603, 0.315676, 0.25, 0.317863, 0.261042, 0.317863, 0.25, 0.317683, 0.25, 0.349252, 0.25, 0.650748, 0.261042, 0.650748, 0.25, 0.648438, 0.25, 0.625, 0.226562, 0.625, 0.875, 0.315826, 0.25, 0.674304, 0.261042, 0.674304, 0.25, 0.671875, 0.25, 0.625, 0.203125, 0.625, 0.200696, 0.375, 0.192683, 0.625, 1.0, 0.625, 0.988958, 0.375, 0.988958, 0.317683, 0.261042, 0.317683, 0.25, 0.315826, 0.25, 0.699397, 0.261042, 0.699397, 0.261042, 0.674304, 0.261042, 0.699397, 0.261042, 0.699397, 0.25, 0.674304, 0.25, 0.625, 0.200696, 0.625, 0.175603, 0.375, 0.190826, 0.772221, 0.25, 0.227779, 0.25, 0.798007, 0.261042, 0.798007, 0.25, 0.772221, 0.25, 0.533893, 0.0555627, 0.798007, 0.261042, 0.798007, 0.261042, 0.772221, 0.261042, 0.772221, 0.261042, 0.798007, 0.261042, 0.772221, 0.261042, 0.674304, 0.261042, 0.317683, 0.375, 0.674304, 0.261042, 0.699397, 0.261042, 0.315826, 0.261042, 0.650748, 0.375, 0.650748, 0.261042, 0.648438, 0.261042, 0.349252, 0.261042, 0.317863, 0.261042, 0.701421, 0.261042, 0.769751, 0.261042, 0.800345, 0.261042, 0.199655, 0.261042, 0.23321, 0.261042, 0.76679, 0.375, 0.76679, 0.261042, 0.701421, 0.261042, 0.803721, 0.261042, 0.351562, 0.375, 0.351562, 0.261042, 0.349252, 0.261042, 0.648438, 0.261042, 0.671875, 0.261042, 0.375, 0.261042, 0.875, 0.375, 0.875, 0.261042, 0.842575, 0.261042, 0.83367, 0.375, 0.83367, 0.261042, 0.803721, 0.261042, 0.16633, 0.25, 0.83367, 0.261042, 0.83367, 0.25, 0.803721, 0.25, 0.157425, 0.261042, 0.157425, 0.25, 0.125, 0.25, 0.842575, 0.261042, 0.842575, 0.261042, 0.842575, 0.375, 0.83367, 0.375, 0.83367, 0.375, 0.83367, 0.261042, 0.842575, 0.261042, 0.842575, 0.261042, 0.842575, 0.25, 0.83367, 0.25, 0.625, 0.0413305, 0.625, 0.0413305, 0.625, 0.0324253, 0.842575, 0.25, 0.842575, 0.25, 0.842575, 0.261042, 0.83367, 0.261042, 0.83367, 0.261042, 0.83367, 0.25, 0.842575, 0.25, 0.875, 0.25, 0.875, 0.261042, 0.375, 0.0, 0.625, 0.0, 0.625, 0.0324253, 0.351562, 0.25, 0.375, 0.25, 0.375, 0.261042, 0.625, 0.25, 0.650748, 0.25, 0.671875, 0.25, 0.671875, 0.261042, 0.625, 0.25, 0.648438, 0.25, 0.648438, 0.261042, 0.349252, 0.25, 0.351562, 0.25, 0.351562, 0.261042, 0.196279, 0.25, 0.375, 0.0712792, 0.625, 0.0712793, 0.625, 0.0746546, 0.803721, 0.25, 0.701421, 0.25, 0.76679, 0.25, 0.76679, 0.261042, 0.625, 0.10821, 0.230249, 0.25, 0.23321, 0.25, 0.23321, 0.261042, 0.199655, 0.25, 0.798007, 0.25, 0.800345, 0.25, 0.800345, 0.261042, 0.625, 0.10821, 0.76679, 0.25, 0.769751, 0.25, 0.769751, 0.261042, 0.230249, 0.25, 0.699397, 0.25, 0.701421, 0.25, 0.701421, 0.261042, 0.375, 0.190676, 0.625, 0.173579, 0.625, 0.175603, 0.315676, 0.25, 0.317683, 0.25, 0.317863, 0.25, 0.317863, 0.261042, 0.349252, 0.25, 0.648438, 0.25, 0.650748, 0.25, 0.650748, 0.261042, 0.625, 0.875, 0.315826, 0.25, 0.671875, 0.25, 0.674304, 0.25, 0.674304, 0.261042, 0.375, 0.192683, 0.625, 0.200696, 0.625, 0.203125, 0.375, 0.988958, 0.625, 0.988958, 0.625, 1.0, 0.315826, 0.25, 0.317683, 0.25, 0.317683, 0.261042, 0.674304, 0.261042, 0.699397, 0.261042, 0.699397, 0.261042, 0.674304, 0.25, 0.699397, 0.25, 0.699397, 0.261042, 0.625, 0.200696, 0.772221, 0.25, 0.227779, 0.25, 0.772221, 0.25, 0.798007, 0.25, 0.798007, 0.261042, 0.533893, 0.0555627, 0.772221, 0.261042, 0.798007, 0.261042, 0.798007, 0.261042, 0.772221, 0.261042, 0.798007, 0.261042, 0.798007, 0.261042, 0.798007, 0.375, 0.772221, 0.261042, 0.674304, 0.261042, 0.317683, 0.375, 0.674304, 0.261042, 0.699397, 0.261042, 0.699397, 0.261042, 0.699397, 0.375, 0.315826, 0.261042, 0.648438, 0.261042, 0.650748, 0.261042, 0.650748, 0.375, 0.349252, 0.261042, 0.317863, 0.261042, 0.701421, 0.261042, 0.769751, 0.261042, 0.800345, 0.261042, 0.199655, 0.261042, 0.23321, 0.261042, 0.701421, 0.261042, 0.76679, 0.261042, 0.76679, 0.375, 0.803721, 0.261042, 0.349252, 0.261042, 0.351562, 0.261042, 0.351562, 0.375, 0.648438, 0.261042, 0.671875, 0.261042, 0.375, 0.261042, 0.842575, 0.261042, 0.875, 0.261042, 0.875, 0.375, 0.803721, 0.261042, 0.83367, 0.261042, 0.83367, 0.375, 0.16633, 0.25, 0.803721, 0.25, 0.83367, 0.25, 0.83367, 0.261042, 0.125, 0.25, 0.157425, 0.25, 0.157425, 0.261042, 0.842575, 0.261042, 0.842575, 0.261042, 0.83367, 0.261042, 0.842575, 0.261042, 0.83367, 0.25, 0.842575, 0.25, 0.842575, 0.261042, 0.625, 0.0324253, 0.625, 0.0413305, 0.625, 0.0413305, 0.0, 1.0, 0.0, 1.0, 0.0, 1.0, 0.842575, 0.261042, 0.842575, 0.25, 0.842575, 0.25, 0.83367, 0.25, 0.83367, 0.261042, 0.83367, 0.261042),
		null, ; No UV2,
		null, ; No Bones,
		null, ; No Weights,
		IntArray(0, 2, 1, 3, 5, 4, 6, 8, 7, 9, 11, 10, 12, 14, 13, 15, 17, 16, 18, 20, 19, 21, 23, 22, 24, 26, 25, 27, 29, 28, 30, 32, 31, 33, 35, 34, 36, 38, 37, 39, 41, 40, 42, 44, 43, 45, 47, 46, 34, 35, 48, 49, 51, 50, 52, 54, 53, 55, 57, 56, 58, 59, 41, 60, 48, 61, 62, 64, 63, 65, 67, 66, 68, 70, 69, 71, 73, 72, 74, 30, 75, 16, 77, 76, 78, 80, 79, 81, 12, 82, 83, 85, 84, 86, 88, 87, 89, 91, 90, 92, 94, 93, 95, 97, 96, 98, 100, 99, 101, 102, 91, 103, 105, 104, 106, 108, 107, 109, 111, 110, 112, 114, 113, 115, 61, 116, 117, 119, 118, 120, 122, 121, 67, 120, 123, 124, 126, 125, 127, 116, 128, 129, 131, 130, 132, 133, 120, 134, 136, 135, 137, 139, 138, 133, 140, 122, 141, 143, 142, 144, 146, 145, 147, 149, 148, 150, 152, 151, 153, 155, 154, 156, 158, 157, 159, 161, 160, 162, 163, 12, 164, 166, 165, 167, 168, 30, 169, 171, 170, 172, 132, 67, 173, 175, 174, 176, 178, 177, 179, 181, 180, 182, 184, 183, 185, 187, 186, 188, 190, 189, 191, 192, 38, 168, 194, 193, 195, 197, 196, 198, 200, 199, 201, 203, 202, 163, 204, 14, 205, 207, 206, 208, 210, 209, 211, 213, 212, 214, 216, 215, 192, 218, 217, 219, 221, 220, 222, 40, 223, 224, 226, 225, 221, 228, 227, 218, 230, 229, 231, 233, 232, 234, 223, 5, 235, 237, 236, 238, 240, 239, 241, 243, 242, 244, 246, 245, 247, 249, 248, 250, 252, 251, 253, 255, 254, 256, 258, 257, 259, 261, 260, 262, 264, 263, 265, 267, 266, 268, 270, 269, 271, 273, 272, 274, 276, 275, 277, 279, 278, 280, 282, 281, 283, 285, 284, 286, 288, 287, 289, 291, 290, 292, 294, 293, 295, 297, 296, 298, 300, 299, 301, 287, 288, 302, 304, 303, 305, 307, 306, 308, 310, 309, 294, 312, 311, 313, 315, 314, 316, 318, 317, 319, 321, 320, 322, 324, 323, 325, 327, 326, 328, 284, 329, 268, 331, 330, 332, 334, 333, 335, 266, 336, 337, 339, 338, 270, 277, 340, 341, 343, 342, 344, 346, 345, 347, 349, 348, 350, 352, 351, 343, 354, 353, 355, 357, 356, 358, 360, 359, 361, 363, 362, 364, 366, 365, 367, 369, 368, 370, 372, 371, 373, 375, 374, 376, 374, 321, 377, 379, 378, 380, 367, 381, 382, 384, 383, 374, 386, 385, 387, 136, 134, 388, 139, 137, 375, 389, 386, 390, 392, 391, 393, 146, 144, 394, 396, 395, 397, 399, 398, 400, 155, 153, 401, 403, 402, 404, 406, 405, 266, 408, 407, 409, 411, 410, 284, 413, 412, 414, 416, 415, 321, 385, 417, 418, 420, 419, 421, 423, 422, 424, 426, 425, 427, 429, 428, 430, 432, 431, 433, 435, 434, 291, 437, 436, 438, 439, 413, 440, 442, 441, 443, 445, 444, 446, 448, 447, 267, 449, 408, 450, 452, 451, 453, 455, 454, 456, 458, 457, 459, 461, 460, 462, 463, 437, 464, 466, 465, 467, 469, 468, 470, 472, 471, 473, 474, 466, 475, 476, 463, 232, 233, 477, 258, 467, 478, 479, 480, 235, 481, 483, 482, 484, 486, 485, 487, 489, 488, 490, 492, 491, 493, 495, 494, 496, 498, 497, 499, 501, 500, 3, 4, 502, 503, 505, 504, 9, 10, 506, 12, 13, 82, 15, 16, 76, 507, 509, 508, 510, 512, 511, 24, 25, 513, 514, 516, 515, 30, 31, 75, 36, 37, 517, 39, 40, 222, 42, 43, 518, 519, 521, 520, 34, 48, 60, 522, 524, 523, 52, 53, 525, 526, 528, 527, 58, 41, 39, 60, 61, 115, 529, 531, 530, 65, 66, 532, 533, 535, 534, 536, 33, 34, 74, 75, 537, 538, 540, 539, 81, 82, 541, 542, 544, 543, 545, 17, 15, 89, 90, 546, 92, 93, 547, 548, 550, 549, 551, 553, 552, 554, 556, 555, 557, 559, 558, 560, 562, 561, 563, 565, 564, 566, 568, 567, 115, 116, 127, 117, 118, 569, 120, 121, 123, 67, 123, 570, 571, 573, 572, 127, 128, 574, 575, 577, 576, 132, 120, 67, 134, 135, 578, 137, 138, 579, 133, 122, 120, 141, 142, 580, 144, 145, 581, 582, 105, 103, 150, 151, 583, 153, 154, 584, 156, 157, 585, 586, 588, 587, 162, 12, 589, 164, 165, 590, 167, 30, 74, 169, 170, 591, 172, 67, 65, 173, 174, 592, 176, 177, 593, 179, 180, 594, 182, 183, 595, 596, 598, 597, 188, 189, 599, 191, 38, 36, 168, 193, 30, 600, 602, 601, 198, 199, 603, 201, 202, 604, 163, 14, 12, 205, 206, 9, 208, 209, 605, 606, 608, 607, 609, 611, 610, 192, 217, 38, 219, 220, 612, 222, 223, 234, 613, 615, 614, 616, 618, 617, 218, 229, 217, 619, 621, 620, 234, 5, 3, 622, 624, 623, 238, 239, 625, 626, 628, 627, 629, 631, 630, 632, 634, 633, 635, 637, 636, 638, 640, 639, 641, 643, 642, 644, 646, 645, 262, 263, 647, 265, 266, 335, 268, 269, 331, 648, 650, 649, 651, 653, 652, 277, 278, 340, 654, 656, 655, 283, 284, 328, 289, 290, 657, 658, 660, 659, 295, 296, 661, 662, 664, 663, 301, 288, 665, 666, 668, 667, 305, 306, 669, 670, 672, 671, 294, 311, 293, 369, 673, 368, 674, 676, 675, 319, 320, 677, 678, 680, 679, 681, 683, 682, 328, 329, 684, 685, 687, 686, 335, 336, 688, 689, 691, 690, 270, 340, 269, 341, 342, 692, 344, 345, 693, 694, 696, 695, 697, 699, 698, 700, 702, 701, 703, 705, 704, 706, 708, 707, 709, 711, 710, 327, 712, 326, 367, 368, 381, 370, 371, 713, 373, 374, 376, 376, 321, 714, 715, 717, 716, 380, 381, 718, 719, 721, 720, 374, 385, 321, 387, 134, 722, 723, 725, 724, 375, 386, 374, 390, 391, 726, 393, 144, 727, 357, 728, 356, 397, 398, 729, 730, 732, 731, 401, 402, 733, 734, 736, 735, 266, 407, 737, 409, 410, 738, 284, 412, 329, 414, 415, 739, 321, 417, 320, 418, 419, 740, 421, 422, 741, 424, 425, 742, 427, 428, 743, 744, 746, 745, 433, 434, 747, 291, 436, 290, 438, 413, 284, 748, 750, 749, 443, 444, 751, 446, 447, 752, 267, 408, 266, 450, 451, 263, 453, 454, 753, 754, 756, 755, 757, 759, 758, 462, 437, 291, 464, 465, 760, 467, 468, 478, 761, 763, 762, 764, 766, 765, 475, 463, 462, 621, 768, 767, 258, 478, 257, 769, 622, 623, 481, 482, 770, 771, 773, 772, 774, 776, 775, 777, 779, 778, 780, 782, 781, 783, 785, 784)
	],
	"morph_arrays":[]
}
surfaces/1 = {
	"material":SubResource(4),
	"primitive":4,
	"arrays":[
		Vector3Array(-3.29654, 1.66649, 0.0, -1.812, 3.3585, 2.46251, -1.812, 3.3585, 0.0, 1.98461, 3.37618, 0.0, 3.4293, 1.60436, 2.46251, 3.4293, 1.60436, 0.0, -1.812, 3.3585, -2.46251, -3.29654, 1.66649, 0.0, -1.812, 3.3585, 0.0, 3.4293, 1.60436, -2.46251, 1.98461, 3.37618, 0.0, 3.4293, 1.60436, 0.0, -3.29654, 1.66649, 0.0, -3.29654, 1.66649, 2.46251, -1.812, 3.3585, 2.46251, 1.98461, 3.37618, 0.0, 1.98461, 3.37618, 2.46251, 3.4293, 1.60436, 2.46251, -1.812, 3.3585, -2.46251, -3.29654, 1.66649, -2.46251, -3.29654, 1.66649, 0.0, 3.4293, 1.60436, -2.46251, 1.98461, 3.37618, -2.46251, 1.98461, 3.37618, 0.0),
		Vector3Array(-0.75169, 0.659517, 0.0, -0.75169, 0.659517, 0.0, -0.75169, 0.659517, 0.0, 0.775024, 0.631931, 0.0, 0.775024, 0.631931, 0.0, 0.775024, 0.631931, 0.0, -0.75169, 0.659517, 0.0, -0.75169, 0.659517, 0.0, -0.75169, 0.659517, 0.0, 0.775024, 0.631931, 0.0, 0.775024, 0.631931, 0.0, 0.775024, 0.631931, 0.0, -0.751689, 0.659517, -1.7205e-07, -0.751689, 0.659517, -1.7205e-07, -0.751689, 0.659517, -1.7205e-07, 0.775025, 0.631931, 0.0, 0.775025, 0.631931, 0.0, 0.775025, 0.631931, 0.0, -0.751689, 0.659517, 1.7205e-07, -0.751689, 0.659517, 1.7205e-07, -0.751689, 0.659517, 1.7205e-07, 0.775025, 0.631931, 0.0, 0.775025, 0.631931, 0.0, 0.775025, 0.631931, 0.0),
		FloatArray(-0.659517, -0.75169, 0.0, 1.0, -0.659517, -0.75169, 0.0, 1.0, -0.659517, -0.75169, 0.0, 1.0, -0.631931, 0.775025, 0.0, 1.0, -0.631931, 0.775025, 0.0, 1.0, -0.631931, 0.775025, 0.0, 1.0, -0.659517, -0.75169, 0.0, -1.0, -0.659517, -0.75169, 0.0, -1.0, -0.659517, -0.75169, 0.0, -1.0, -0.631931, 0.775025, 0.0, -1.0, -0.631931, 0.775025, 0.0, -1.0, -0.631931, 0.775025, 0.0, -1.0, -0.659517, -0.751689, -5.80911e-07, 1.0, -0.659517, -0.751689, -5.80911e-07, 1.0, -0.659517, -0.751689, -5.80911e-07, 1.0, -0.631931, 0.775025, 0.0, 1.0, -0.631931, 0.775025, 0.0, 1.0, -0.631931, 0.775025, 0.0, 1.0, -0.659517, -0.751689, 5.722e-07, -1.0, -0.659517, -0.751689, 5.722e-07, -1.0, -0.659517, -0.751689, 5.722e-07, -1.0, -0.631931, 0.775025, 0.0, -1.0, -0.631931, 0.775025, 0.0, -1.0, -0.631931, 0.775025, 0.0, -1.0),
		null, ; no Vertex Colors,
		Vector2Array(0.798007, 0.375, 0.772221, 0.261042, 0.772221, 0.375, 0.699397, 0.375, 0.674304, 0.261042, 0.674304, 0.375, 0.772221, 0.261042, 0.798007, 0.375, 0.772221, 0.375, 0.674304, 0.261042, 0.699397, 0.375, 0.674304, 0.375, 0.798007, 0.375, 0.798007, 0.261042, 0.772221, 0.261042, 0.699397, 0.375, 0.699397, 0.261042, 0.674304, 0.261042, 0.772221, 0.261042, 0.798007, 0.261042, 0.798007, 0.375, 0.674304, 0.261042, 0.699397, 0.261042, 0.699397, 0.375),
		null, ; No UV2,
		null, ; No Bones,
		null, ; No Weights,
		IntArray(0, 2, 1, 3, 5, 4, 6, 8, 7, 9, 11, 10, 12, 14, 13, 15, 17, 16, 18, 20, 19, 21, 23, 22)
	],
	"morph_arrays":[]
}

[node type="Spatial" name="Scene"]

[node name="Cube" type="MeshInstance" parent="."]

mesh = SubResource(5)
visible = true
transform = Transform(1.0, 0.0, 0.0, 0.0, 1.0, 0.0, 0.0, 0.0, 1.0, 0.0, 0.0, 0.0)
